﻿"Time","ingress announcements"
2021-09-13 15:43:00,
2021-09-13 15:43:05,
2021-09-13 15:43:10,
2021-09-13 15:43:15,
2021-09-13 15:43:20,
2021-09-13 15:43:25,
2021-09-13 15:43:30,
2021-09-13 15:43:35,
2021-09-13 15:43:40,
2021-09-13 15:43:45,
2021-09-13 15:43:50,0
2021-09-13 15:43:55,
2021-09-13 15:44:00,0
2021-09-13 15:44:05,
2021-09-13 15:44:10,0
2021-09-13 15:44:15,
2021-09-13 15:44:20,0
2021-09-13 15:44:25,
2021-09-13 15:44:30,0
2021-09-13 15:44:35,
2021-09-13 15:44:40,0
2021-09-13 15:44:45,
2021-09-13 15:44:50,0
2021-09-13 15:44:55,
2021-09-13 15:45:00,0
2021-09-13 15:45:05,
2021-09-13 15:45:10,0
2021-09-13 15:45:15,
2021-09-13 15:45:20,0
2021-09-13 15:45:25,
2021-09-13 15:45:30,0
2021-09-13 15:45:35,
2021-09-13 15:45:40,0
2021-09-13 15:45:45,
2021-09-13 15:45:50,0
2021-09-13 15:45:55,
2021-09-13 15:46:00,0
2021-09-13 15:46:05,
2021-09-13 15:46:10,0
2021-09-13 15:46:15,
2021-09-13 15:46:20,0
2021-09-13 15:46:25,
2021-09-13 15:46:30,0
2021-09-13 15:46:35,
2021-09-13 15:46:40,0
2021-09-13 15:46:45,
2021-09-13 15:46:50,0
2021-09-13 15:46:55,
2021-09-13 15:47:00,0
2021-09-13 15:47:05,
2021-09-13 15:47:10,0
2021-09-13 15:47:15,
2021-09-13 15:47:20,0
2021-09-13 15:47:25,
2021-09-13 15:47:30,0
2021-09-13 15:47:35,
2021-09-13 15:47:40,0
2021-09-13 15:47:45,
2021-09-13 15:47:50,0
2021-09-13 15:47:55,
2021-09-13 15:48:00,0
2021-09-13 15:48:05,
2021-09-13 15:48:10,0
2021-09-13 15:48:15,
2021-09-13 15:48:20,0
2021-09-13 15:48:25,
2021-09-13 15:48:30,0
2021-09-13 15:48:35,
2021-09-13 15:48:40,0
2021-09-13 15:48:45,
2021-09-13 15:48:50,0
2021-09-13 15:48:55,
2021-09-13 15:49:00,0
2021-09-13 15:49:05,
2021-09-13 15:49:10,0
2021-09-13 15:49:15,
2021-09-13 15:49:20,0
2021-09-13 15:49:25,
2021-09-13 15:49:30,0
2021-09-13 15:49:35,
2021-09-13 15:49:40,0
2021-09-13 15:49:45,
2021-09-13 15:49:50,0
2021-09-13 15:49:55,
2021-09-13 15:50:00,0
2021-09-13 15:50:05,
2021-09-13 15:50:10,0
2021-09-13 15:50:15,
2021-09-13 15:50:20,0
2021-09-13 15:50:25,
2021-09-13 15:50:30,0
2021-09-13 15:50:35,
2021-09-13 15:50:40,0.0160
2021-09-13 15:50:45,
2021-09-13 15:50:50,0.0135
2021-09-13 15:50:55,
2021-09-13 15:51:00,0.0115
2021-09-13 15:51:05,
2021-09-13 15:51:10,0.00970
2021-09-13 15:51:15,
2021-09-13 15:51:20,0.0389
2021-09-13 15:51:25,
2021-09-13 15:51:30,0.0329
2021-09-13 15:51:35,
2021-09-13 15:51:40,0.0279
2021-09-13 15:51:45,
2021-09-13 15:51:50,0.0236
2021-09-13 15:51:55,
2021-09-13 15:52:00,0.0360
2021-09-13 15:52:05,
2021-09-13 15:52:10,0.0452
2021-09-13 15:52:15,
2021-09-13 15:52:20,0.0689
2021-09-13 15:52:25,
2021-09-13 15:52:30,0.0583
2021-09-13 15:52:35,
2021-09-13 15:52:40,0.0494
2021-09-13 15:52:45,
2021-09-13 15:52:50,0.0565
2021-09-13 15:52:55,
2021-09-13 15:53:00,0.0478
2021-09-13 15:53:05,
2021-09-13 15:53:10,0.0405
2021-09-13 15:53:15,
2021-09-13 15:53:20,0.0490
2021-09-13 15:53:25,
2021-09-13 15:53:30,0.0562
2021-09-13 15:53:35,
2021-09-13 15:53:40,0.0476
2021-09-13 15:53:45,
2021-09-13 15:53:50,0.0562
2021-09-13 15:53:55,
2021-09-13 15:54:00,0.0623
2021-09-13 15:54:05,
2021-09-13 15:54:10,0.0687
2021-09-13 15:54:15,
2021-09-13 15:54:20,0.0582
2021-09-13 15:54:25,
2021-09-13 15:54:30,0.0787
2021-09-13 15:54:35,
2021-09-13 15:54:40,0.0826
2021-09-13 15:54:45,
2021-09-13 15:54:50,0.0846
2021-09-13 15:54:55,
2021-09-13 15:55:00,0.0876
2021-09-13 15:55:05,
2021-09-13 15:55:10,0.0742
2021-09-13 15:55:15,
2021-09-13 15:55:20,0.0788
2021-09-13 15:55:25,
2021-09-13 15:55:30,0.0814
2021-09-13 15:55:35,
2021-09-13 15:55:40,0.0689
2021-09-13 15:55:45,
2021-09-13 15:55:50,0.0583
2021-09-13 15:55:55,
2021-09-13 15:56:00,0.0494
2021-09-13 15:56:05,
2021-09-13 15:56:10,0.0418
2021-09-13 15:56:15,
2021-09-13 15:56:20,0.0354
2021-09-13 15:56:25,
2021-09-13 15:56:30,0.0459
2021-09-13 15:56:35,
2021-09-13 15:56:40,0.0536
2021-09-13 15:56:45,
2021-09-13 15:56:50,0.0454
2021-09-13 15:56:55,
2021-09-13 15:57:00,0.0691
2021-09-13 15:57:05,
2021-09-13 15:57:10,0.0585
2021-09-13 15:57:15,
2021-09-13 15:57:20,0.0495
2021-09-13 15:57:25,
2021-09-13 15:57:30,0.0726
2021-09-13 15:57:35,
2021-09-13 15:57:40,0.0615
2021-09-13 15:57:45,
2021-09-13 15:57:50,0.0520
2021-09-13 15:57:55,
2021-09-13 15:58:00,0.0440
2021-09-13 15:58:05,
2021-09-13 15:58:10,0.0520
2021-09-13 15:58:15,
2021-09-13 15:58:20,0.0440
2021-09-13 15:58:25,
2021-09-13 15:58:30,0.0520
2021-09-13 15:58:35,
2021-09-13 15:58:40,0.0440
2021-09-13 15:58:45,
2021-09-13 15:58:50,0.0372
2021-09-13 15:58:55,
2021-09-13 15:59:00,0.0622
2021-09-13 15:59:05,
2021-09-13 15:59:10,0.0674
2021-09-13 15:59:15,
2021-09-13 15:59:20,0.0570
2021-09-13 15:59:25,
2021-09-13 15:59:30,0.0483
2021-09-13 15:59:35,
2021-09-13 15:59:40,0.0556
2021-09-13 15:59:45,
2021-09-13 15:59:50,0.0471
2021-09-13 15:59:55,
2021-09-13 16:00:00,0.0545
2021-09-13 16:00:05,
2021-09-13 16:00:10,0.0462
2021-09-13 16:00:15,
2021-09-13 16:00:20,0.0551
2021-09-13 16:00:25,
2021-09-13 16:00:30,0.0466
2021-09-13 16:00:35,
2021-09-13 16:00:40,0.0395
2021-09-13 16:00:45,
2021-09-13 16:00:50,0.0628
2021-09-13 16:00:55,
2021-09-13 16:01:00,0.0532
2021-09-13 16:01:05,
2021-09-13 16:01:10,0.0610
2021-09-13 16:01:15,
2021-09-13 16:01:20,0.0664
2021-09-13 16:01:25,
2021-09-13 16:01:30,0.0722
2021-09-13 16:01:35,
2021-09-13 16:01:40,0.0611
2021-09-13 16:01:45,
2021-09-13 16:01:50,0.0677
2021-09-13 16:01:55,
2021-09-13 16:02:00,0.0733
2021-09-13 16:02:05,
2021-09-13 16:02:10,0.0620
2021-09-13 16:02:15,
2021-09-13 16:02:20,0.0685
2021-09-13 16:02:25,
2021-09-13 16:02:30,0.0887
2021-09-13 16:02:35,
2021-09-13 16:02:40,0.0751
2021-09-13 16:02:45,
2021-09-13 16:02:50,0.0795
2021-09-13 16:02:55,
2021-09-13 16:03:00,0.0673
2021-09-13 16:03:05,
2021-09-13 16:03:10,0.0570
2021-09-13 16:03:15,
2021-09-13 16:03:20,0.0802
2021-09-13 16:03:25,
2021-09-13 16:03:30,0.0826
2021-09-13 16:03:35,
2021-09-13 16:03:40,0.0699
2021-09-13 16:03:45,
2021-09-13 16:03:50,0.0899
2021-09-13 16:03:55,
2021-09-13 16:04:00,0.0761
2021-09-13 16:04:05,
2021-09-13 16:04:10,0.0644
2021-09-13 16:04:15,
2021-09-13 16:04:20,0.0692
2021-09-13 16:04:25,
2021-09-13 16:04:30,0.0586
2021-09-13 16:04:35,
2021-09-13 16:04:40,0.0496
2021-09-13 16:04:45,
2021-09-13 16:04:50,0.0420
2021-09-13 16:04:55,
2021-09-13 16:05:00,0.0356
2021-09-13 16:05:05,
2021-09-13 16:05:10,0.0461
2021-09-13 16:05:15,
2021-09-13 16:05:20,0.0550
2021-09-13 16:05:25,
2021-09-13 16:05:30,0.0625
2021-09-13 16:05:35,
2021-09-13 16:05:40,0.0529
2021-09-13 16:05:45,
2021-09-13 16:05:50,0.0608
2021-09-13 16:05:55,
2021-09-13 16:06:00,0.0662
2021-09-13 16:06:05,
2021-09-13 16:06:10,0.0867
2021-09-13 16:06:15,
2021-09-13 16:06:20,0.0894
2021-09-13 16:06:25,
2021-09-13 16:06:30,0.0904
2021-09-13 16:06:35,
2021-09-13 16:06:40,0.0765
2021-09-13 16:06:45,
2021-09-13 16:06:50,0.0648
2021-09-13 16:06:55,
2021-09-13 16:07:00,0.0695
2021-09-13 16:07:05,
2021-09-13 16:07:10,0.0589
2021-09-13 16:07:15,
2021-09-13 16:07:20,0.0658
2021-09-13 16:07:25,
2021-09-13 16:07:30,0.0557
2021-09-13 16:07:35,
2021-09-13 16:07:40,0.0619
2021-09-13 16:07:45,
2021-09-13 16:07:50,0.0844
2021-09-13 16:07:55,
2021-09-13 16:08:00,0.0861
2021-09-13 16:08:05,
2021-09-13 16:08:10,0.0729
2021-09-13 16:08:15,
2021-09-13 16:08:20,0.0617
2021-09-13 16:08:25,
2021-09-13 16:08:30,0.0522
2021-09-13 16:08:35,
2021-09-13 16:08:40,0.0442
2021-09-13 16:08:45,
2021-09-13 16:08:50,0.0374
2021-09-13 16:08:55,
2021-09-13 16:09:00,0.0317
2021-09-13 16:09:05,
2021-09-13 16:09:10,0.0268
2021-09-13 16:09:15,
2021-09-13 16:09:20,0.0374
2021-09-13 16:09:25,
2021-09-13 16:09:30,0.0317
2021-09-13 16:09:35,
2021-09-13 16:09:40,0.0575
2021-09-13 16:09:45,
2021-09-13 16:09:50,0.0487
2021-09-13 16:09:55,
2021-09-13 16:10:00,0.0572
2021-09-13 16:10:05,
2021-09-13 16:10:10,0.0484
2021-09-13 16:10:15,
2021-09-13 16:10:20,0.0704
2021-09-13 16:10:25,
2021-09-13 16:10:30,0.0916
2021-09-13 16:10:35,
2021-09-13 16:10:40,0.0935
2021-09-13 16:10:45,
2021-09-13 16:10:50,0.0792
2021-09-13 16:10:55,
2021-09-13 16:11:00,0.0817
2021-09-13 16:11:05,
2021-09-13 16:11:10,0.0692
2021-09-13 16:11:15,
2021-09-13 16:11:20,0.0745
2021-09-13 16:11:25,
2021-09-13 16:11:30,0.0631
2021-09-13 16:11:35,
2021-09-13 16:11:40,0.0534
2021-09-13 16:11:45,
2021-09-13 16:11:50,0.0452
2021-09-13 16:11:55,
2021-09-13 16:12:00,0.0677
2021-09-13 16:12:05,
2021-09-13 16:12:10,0.0867
2021-09-13 16:12:15,
2021-09-13 16:12:20,0.0734
2021-09-13 16:12:25,
2021-09-13 16:12:30,0.0621
2021-09-13 16:12:35,
2021-09-13 16:12:40,0.0526
2021-09-13 16:12:45,
2021-09-13 16:12:50,0.0605
2021-09-13 16:12:55,
2021-09-13 16:13:00,0.0979
2021-09-13 16:13:05,
2021-09-13 16:13:10,0.0976
2021-09-13 16:13:15,
2021-09-13 16:13:20,0.113
2021-09-13 16:13:25,
2021-09-13 16:13:30,0.111
2021-09-13 16:13:35,
2021-09-13 16:13:40,0.0937
2021-09-13 16:13:45,
2021-09-13 16:13:50,0.0793
2021-09-13 16:13:55,
2021-09-13 16:14:00,0.0671
2021-09-13 16:14:05,
2021-09-13 16:14:10,0.0568
2021-09-13 16:14:15,
2021-09-13 16:14:20,0.0481
2021-09-13 16:14:25,
2021-09-13 16:14:30,0.0554
2021-09-13 16:14:35,
2021-09-13 16:14:40,0.0776
2021-09-13 16:14:45,
2021-09-13 16:14:50,0.0657
2021-09-13 16:14:55,
2021-09-13 16:15:00,0.0556
2021-09-13 16:15:05,
2021-09-13 16:15:10,0.0778
2021-09-13 16:15:15,
2021-09-13 16:15:20,0.0818
2021-09-13 16:15:25,
2021-09-13 16:15:30,0.0853
2021-09-13 16:15:35,
2021-09-13 16:15:40,0.0882
2021-09-13 16:15:45,
2021-09-13 16:15:50,0.0746
2021-09-13 16:15:55,
2021-09-13 16:16:00,0.0779
2021-09-13 16:16:05,
2021-09-13 16:16:10,0.0659
2021-09-13 16:16:15,
2021-09-13 16:16:20,0.0705
2021-09-13 16:16:25,
2021-09-13 16:16:30,0.0904
2021-09-13 16:16:35,
2021-09-13 16:16:40,0.0925
2021-09-13 16:16:45,
2021-09-13 16:16:50,0.109
2021-09-13 16:16:55,
2021-09-13 16:17:00,0.0923
2021-09-13 16:17:05,
2021-09-13 16:17:10,0.0941
2021-09-13 16:17:15,
2021-09-13 16:17:20,0.0797
2021-09-13 16:17:25,
2021-09-13 16:17:30,0.0834
2021-09-13 16:17:35,
2021-09-13 16:17:40,0.103
2021-09-13 16:17:45,
2021-09-13 16:17:50,0.0868
2021-09-13 16:17:55,
2021-09-13 16:18:00,0.0895
2021-09-13 16:18:05,
2021-09-13 16:18:10,0.0758
2021-09-13 16:18:15,
2021-09-13 16:18:20,0.0788
2021-09-13 16:18:25,
2021-09-13 16:18:30,0.0667
2021-09-13 16:18:35,
2021-09-13 16:18:40,0.0885
2021-09-13 16:18:45,
2021-09-13 16:18:50,0.0909
2021-09-13 16:18:55,
2021-09-13 16:19:00,0.0769
2021-09-13 16:19:05,
2021-09-13 16:19:10,0.0811
2021-09-13 16:19:15,
2021-09-13 16:19:20,0.0687
2021-09-13 16:19:25,
2021-09-13 16:19:30,0.0728
2021-09-13 16:19:35,
2021-09-13 16:19:40,0.0617
2021-09-13 16:19:45,
2021-09-13 16:19:50,0.0522
2021-09-13 16:19:55,
2021-09-13 16:20:00,0.0589
2021-09-13 16:20:05,
2021-09-13 16:20:10,0.0498
2021-09-13 16:20:15,
2021-09-13 16:20:20,0.0422
2021-09-13 16:20:25,
2021-09-13 16:20:30,0.0357
2021-09-13 16:20:35,
2021-09-13 16:20:40,0.0302
2021-09-13 16:20:45,
2021-09-13 16:20:50,0.0550
2021-09-13 16:20:55,
2021-09-13 16:21:00,0.0466
2021-09-13 16:21:05,
2021-09-13 16:21:10,0.0394
2021-09-13 16:21:15,
2021-09-13 16:21:20,0.0481
2021-09-13 16:21:25,
2021-09-13 16:21:30,0.0407
2021-09-13 16:21:35,
2021-09-13 16:21:40,0.0504
2021-09-13 16:21:45,
2021-09-13 16:21:50,0.0427
2021-09-13 16:21:55,
2021-09-13 16:22:00,0.0521
2021-09-13 16:22:05,
2021-09-13 16:22:10,0.0441
2021-09-13 16:22:15,
2021-09-13 16:22:20,0.0374
2021-09-13 16:22:25,
2021-09-13 16:22:30,0.0623
2021-09-13 16:22:35,
2021-09-13 16:22:40,0.0528
2021-09-13 16:22:45,
2021-09-13 16:22:50,0.0594
2021-09-13 16:22:55,
2021-09-13 16:23:00,0.0662
2021-09-13 16:23:05,
2021-09-13 16:23:10,0.0561
2021-09-13 16:23:15,
2021-09-13 16:23:20,0.0475
2021-09-13 16:23:25,
2021-09-13 16:23:30,0.0402
2021-09-13 16:23:35,
2021-09-13 16:23:40,0.0634
2021-09-13 16:23:45,
2021-09-13 16:23:50,0.0684
2021-09-13 16:23:55,
2021-09-13 16:24:00,0.0579
2021-09-13 16:24:05,
2021-09-13 16:24:10,0.0490
2021-09-13 16:24:15,
2021-09-13 16:24:20,0.0562
2021-09-13 16:24:25,
2021-09-13 16:24:30,0.0623
2021-09-13 16:24:35,
2021-09-13 16:24:40,0.0527
2021-09-13 16:24:45,
2021-09-13 16:24:50,0.0753
2021-09-13 16:24:55,
2021-09-13 16:25:00,0.0638
2021-09-13 16:25:05,
2021-09-13 16:25:10,0.0687
2021-09-13 16:25:15,
2021-09-13 16:25:20,0.0741
2021-09-13 16:25:25,
2021-09-13 16:25:30,0.0628
2021-09-13 16:25:35,
2021-09-13 16:25:40,0.0825
2021-09-13 16:25:45,
2021-09-13 16:25:50,0.0699
2021-09-13 16:25:55,
2021-09-13 16:26:00,0.0911
2021-09-13 16:26:05,
2021-09-13 16:26:10,0.0771
2021-09-13 16:26:15,
2021-09-13 16:26:20,0.0960
2021-09-13 16:26:25,
2021-09-13 16:26:30,0.0960
2021-09-13 16:26:35,
2021-09-13 16:26:40,0.0812
2021-09-13 16:26:45,
2021-09-13 16:26:50,0.0848
2021-09-13 16:26:55,
2021-09-13 16:27:00,0.102
2021-09-13 16:27:05,
2021-09-13 16:27:10,0.0867
2021-09-13 16:27:15,
2021-09-13 16:27:20,0.0881
2021-09-13 16:27:25,
2021-09-13 16:27:30,0.0893
2021-09-13 16:27:35,
2021-09-13 16:27:40,0.106
2021-09-13 16:27:45,
2021-09-13 16:27:50,0.121
2021-09-13 16:27:55,
2021-09-13 16:28:00,0.117
2021-09-13 16:28:05,
2021-09-13 16:28:10,0.114
2021-09-13 16:28:15,
2021-09-13 16:28:20,0.0962
2021-09-13 16:28:25,
2021-09-13 16:28:30,0.0961
2021-09-13 16:28:35,
2021-09-13 16:28:40,0.0814
2021-09-13 16:28:45,
2021-09-13 16:28:50,0.0849
2021-09-13 16:28:55,
2021-09-13 16:29:00,0.0878
2021-09-13 16:29:05,
2021-09-13 16:29:10,0.0744
2021-09-13 16:29:15,
2021-09-13 16:29:20,0.0789
2021-09-13 16:29:25,
2021-09-13 16:29:30,0.0668
2021-09-13 16:29:35,
2021-09-13 16:29:40,0.0713
2021-09-13 16:29:45,
2021-09-13 16:29:50,0.0750
2021-09-13 16:29:55,
2021-09-13 16:30:00,0.0635
2021-09-13 16:30:05,
2021-09-13 16:30:10,0.0538
2021-09-13 16:30:15,
2021-09-13 16:30:20,0.0455
2021-09-13 16:30:25,
2021-09-13 16:30:30,0.0532
2021-09-13 16:30:35,
2021-09-13 16:30:40,0.0451
2021-09-13 16:30:45,
2021-09-13 16:30:50,0.0381
2021-09-13 16:30:55,
2021-09-13 16:31:00,0.0470
2021-09-13 16:31:05,
2021-09-13 16:31:10,0.0558
2021-09-13 16:31:15,
2021-09-13 16:31:20,0.0779
2021-09-13 16:31:25,
2021-09-13 16:31:30,0.0660
2021-09-13 16:31:35,
2021-09-13 16:31:40,0.0558
2021-09-13 16:31:45,
2021-09-13 16:31:50,0.0620
2021-09-13 16:31:55,
2021-09-13 16:32:00,0.0844
2021-09-13 16:32:05,
2021-09-13 16:32:10,0.0715
2021-09-13 16:32:15,
2021-09-13 16:32:20,0.0605
2021-09-13 16:32:25,
2021-09-13 16:32:30,0.0512
2021-09-13 16:32:35,
2021-09-13 16:32:40,0.0728
2021-09-13 16:32:45,
2021-09-13 16:32:50,0.0763
2021-09-13 16:32:55,
2021-09-13 16:33:00,0.0646
2021-09-13 16:33:05,
2021-09-13 16:33:10,0.0694
2021-09-13 16:33:15,
2021-09-13 16:33:20,0.0747
2021-09-13 16:33:25,
2021-09-13 16:33:30,0.0633
2021-09-13 16:33:35,
2021-09-13 16:33:40,0.0535
2021-09-13 16:33:45,
2021-09-13 16:33:50,0.0453
2021-09-13 16:33:55,
2021-09-13 16:34:00,0.0384
2021-09-13 16:34:05,
2021-09-13 16:34:10,0.0325
2021-09-13 16:34:15,
2021-09-13 16:34:20,0.0435
2021-09-13 16:34:25,
2021-09-13 16:34:30,0.0515
2021-09-13 16:34:35,
2021-09-13 16:34:40,0.0583
2021-09-13 16:34:45,
2021-09-13 16:34:50,0.0654
2021-09-13 16:34:55,
2021-09-13 16:35:00,0.0848
2021-09-13 16:35:05,
2021-09-13 16:35:10,0.0865
2021-09-13 16:35:15,
2021-09-13 16:35:20,0.105
2021-09-13 16:35:25,
2021-09-13 16:35:30,0.105
2021-09-13 16:35:35,
2021-09-13 16:35:40,0.0889
2021-09-13 16:35:45,
2021-09-13 16:35:50,0.0912
2021-09-13 16:35:55,
2021-09-13 16:36:00,0.108
2021-09-13 16:36:05,
2021-09-13 16:36:10,0.0914
2021-09-13 16:36:15,
2021-09-13 16:36:20,0.0773
2021-09-13 16:36:25,
2021-09-13 16:36:30,0.0655
2021-09-13 16:36:35,
2021-09-13 16:36:40,0.0701
2021-09-13 16:36:45,
2021-09-13 16:36:50,0.0754
2021-09-13 16:36:55,
2021-09-13 16:37:00,0.0785
2021-09-13 16:37:05,
2021-09-13 16:37:10,0.0824
2021-09-13 16:37:15,
2021-09-13 16:37:20,0.0698
2021-09-13 16:37:25,
2021-09-13 16:37:30,0.0591
2021-09-13 16:37:35,
2021-09-13 16:37:40,0.0660
2021-09-13 16:37:45,
2021-09-13 16:37:50,0.0559
2021-09-13 16:37:55,
2021-09-13 16:38:00,0.0473
2021-09-13 16:38:05,
2021-09-13 16:38:10,0.0560
2021-09-13 16:38:15,
2021-09-13 16:38:20,0.0474
2021-09-13 16:38:25,
2021-09-13 16:38:30,0.0549
2021-09-13 16:38:35,
2021-09-13 16:38:40,0.0464
2021-09-13 16:38:45,
2021-09-13 16:38:50,0.0393
2021-09-13 16:38:55,
2021-09-13 16:39:00,0.0333
2021-09-13 16:39:05,
2021-09-13 16:39:10,0.0429
2021-09-13 16:39:15,
2021-09-13 16:39:20,0.0670
2021-09-13 16:39:25,
2021-09-13 16:39:30,0.0567
2021-09-13 16:39:35,
2021-09-13 16:39:40,0.0480
2021-09-13 16:39:45,
2021-09-13 16:39:50,0.0553
2021-09-13 16:39:55,
2021-09-13 16:40:00,0.0469
2021-09-13 16:40:05,
2021-09-13 16:40:10,0.0397
2021-09-13 16:40:15,
2021-09-13 16:40:20,0.0630
2021-09-13 16:40:25,
2021-09-13 16:40:30,0.0533
2021-09-13 16:40:35,
2021-09-13 16:40:40,0.0451
2021-09-13 16:40:45,
2021-09-13 16:40:50,0.0529
2021-09-13 16:40:55,
2021-09-13 16:41:00,0.0595
2021-09-13 16:41:05,
2021-09-13 16:41:10,0.0651
2021-09-13 16:41:15,
2021-09-13 16:41:20,0.0551
2021-09-13 16:41:25,
2021-09-13 16:41:30,0.0761
2021-09-13 16:41:35,
2021-09-13 16:41:40,0.0644
2021-09-13 16:41:45,
2021-09-13 16:41:50,0.0545
2021-09-13 16:41:55,
2021-09-13 16:42:00,0.0621
2021-09-13 16:42:05,
2021-09-13 16:42:10,0.0526
2021-09-13 16:42:15,
2021-09-13 16:42:20,0.0605
2021-09-13 16:42:25,
2021-09-13 16:42:30,0.0512
2021-09-13 16:42:35,
2021-09-13 16:42:40,0.0753
2021-09-13 16:42:45,
2021-09-13 16:42:50,0.0945
2021-09-13 16:42:55,
2021-09-13 16:43:00,0.0800
2021-09-13 16:43:05,
2021-09-13 16:43:10,0.0837
2021-09-13 16:43:15,
2021-09-13 16:43:20,0.0708
2021-09-13 16:43:25,
2021-09-13 16:43:30,0.0600
2021-09-13 16:43:35,
2021-09-13 16:43:40,0.0667
2021-09-13 16:43:45,
2021-09-13 16:43:50,0.0725
2021-09-13 16:43:55,
2021-09-13 16:44:00,0.0761
2021-09-13 16:44:05,
2021-09-13 16:44:10,0.0644
2021-09-13 16:44:15,
2021-09-13 16:44:20,0.0692
2021-09-13 16:44:25,
2021-09-13 16:44:30,0.0733
2021-09-13 16:44:35,
2021-09-13 16:44:40,0.0780
2021-09-13 16:44:45,
2021-09-13 16:44:50,0.0808
2021-09-13 16:44:55,
2021-09-13 16:45:00,

