﻿"Time","compaction time"
2021-09-13 15:43:00,
2021-09-13 15:43:10,
2021-09-13 15:43:20,
2021-09-13 15:43:30,
2021-09-13 15:43:40,
2021-09-13 15:43:50,12600928
2021-09-13 15:44:00,10666456
2021-09-13 15:44:10,9028960
2021-09-13 15:44:20,7642849
2021-09-13 15:44:30,6469532
2021-09-13 15:44:40,5476341
2021-09-13 15:44:50,4635622
2021-09-13 15:45:00,3923970
2021-09-13 15:45:10,3321569
2021-09-13 15:45:20,2811647
2021-09-13 15:45:30,2380008
2021-09-13 15:45:40,2014633
2021-09-13 15:45:50,1705350
2021-09-13 15:46:00,1443548
2021-09-13 15:46:10,1221937
2021-09-13 15:46:20,1034347
2021-09-13 15:46:30,875556
2021-09-13 15:46:40,741142
2021-09-13 15:46:50,627363
2021-09-13 15:47:00,531052
2021-09-13 15:47:10,449525
2021-09-13 15:47:20,380515
2021-09-13 15:47:30,322099
2021-09-13 15:47:40,272651
2021-09-13 15:47:50,230794
2021-09-13 15:48:00,195363
2021-09-13 15:48:10,165371
2021-09-13 15:48:20,139984
2021-09-13 15:48:30,118494
2021-09-13 15:48:40,100303
2021-09-13 15:48:50,84904
2021-09-13 15:49:00,71870
2021-09-13 15:49:10,60837
2021-09-13 15:49:20,51497
2021-09-13 15:49:30,43591
2021-09-13 15:49:40,36899
2021-09-13 15:49:50,31235
2021-09-13 15:50:00,26439
2021-09-13 15:50:10,22381
2021-09-13 15:50:20,18945
2021-09-13 15:50:30,16036
2021-09-13 15:50:40,13574
2021-09-13 15:50:50,11491
2021-09-13 15:51:00,9727
2021-09-13 15:51:10,8233
2021-09-13 15:51:20,6969
2021-09-13 15:51:30,5899
2021-09-13 15:51:40,4994
2021-09-13 15:51:50,4227
2021-09-13 15:52:00,3578
2021-09-13 15:52:10,3029
2021-09-13 15:52:20,2564
2021-09-13 15:52:30,2170
2021-09-13 15:52:40,1837
2021-09-13 15:52:50,1555
2021-09-13 15:53:00,1316
2021-09-13 15:53:10,1114
2021-09-13 15:53:20,943
2021-09-13 15:53:30,798
2021-09-13 15:53:40,676
2021-09-13 15:53:50,572
2021-09-13 15:54:00,484
2021-09-13 15:54:10,410
2021-09-13 15:54:20,347
2021-09-13 15:54:30,294
2021-09-13 15:54:40,249
2021-09-13 15:54:50,210
2021-09-13 15:55:00,178
2021-09-13 15:55:10,151
2021-09-13 15:55:20,128
2021-09-13 15:55:30,108
2021-09-13 15:55:40,91.5
2021-09-13 15:55:50,77.4
2021-09-13 15:56:00,65.5
2021-09-13 15:56:10,55.5
2021-09-13 15:56:20,47.0
2021-09-13 15:56:30,39.8
2021-09-13 15:56:40,33.6
2021-09-13 15:56:50,28.5
2021-09-13 15:57:00,24.1
2021-09-13 15:57:10,20.4
2021-09-13 15:57:20,17.3
2021-09-13 15:57:30,14.6
2021-09-13 15:57:40,12.4
2021-09-13 15:57:50,10.5
2021-09-13 15:58:00,8.87
2021-09-13 15:58:10,7.51
2021-09-13 15:58:20,6.36
2021-09-13 15:58:30,5.38
2021-09-13 15:58:40,4.55
2021-09-13 15:58:50,3.85
2021-09-13 15:59:00,3.26
2021-09-13 15:59:10,2.76
2021-09-13 15:59:20,2.34
2021-09-13 15:59:30,1.98
2021-09-13 15:59:40,1.68
2021-09-13 15:59:50,1.42
2021-09-13 16:00:00,1.20
2021-09-13 16:00:10,1.02
2021-09-13 16:00:20,0.860
2021-09-13 16:00:30,0.728
2021-09-13 16:00:40,0.616
2021-09-13 16:00:50,0.522
2021-09-13 16:01:00,0.442
2021-09-13 16:01:10,0.374
2021-09-13 16:01:20,0.316
2021-09-13 16:01:30,0.268
2021-09-13 16:01:40,0.227
2021-09-13 16:01:50,0.192
2021-09-13 16:02:00,0.162
2021-09-13 16:02:10,0.138
2021-09-13 16:02:20,0.116
2021-09-13 16:02:30,0.0985
2021-09-13 16:02:40,0.0834
2021-09-13 16:02:50,0.0706
2021-09-13 16:03:00,0.0598
2021-09-13 16:03:10,0.0506
2021-09-13 16:03:20,0.0428
2021-09-13 16:03:30,0.0362
2021-09-13 16:03:40,0.0307
2021-09-13 16:03:50,0.0260
2021-09-13 16:04:00,0.0220
2021-09-13 16:04:10,0.0186
2021-09-13 16:04:20,0.0158
2021-09-13 16:04:30,0.0133
2021-09-13 16:04:40,0.0113
2021-09-13 16:04:50,0.00955
2021-09-13 16:05:00,0.00809
2021-09-13 16:05:10,0.00685
2021-09-13 16:05:20,0.00580
2021-09-13 16:05:30,0.00491
2021-09-13 16:05:40,0.00415
2021-09-13 16:05:50,0.00351
2021-09-13 16:06:00,0.00298
2021-09-13 16:06:10,0.00252
2021-09-13 16:06:20,0.00213
2021-09-13 16:06:30,0.00180
2021-09-13 16:06:40,0.00153
2021-09-13 16:06:50,0.00129
2021-09-13 16:07:00,0.00109
2021-09-13 16:07:10,0.000927
2021-09-13 16:07:20,0.000784
2021-09-13 16:07:30,0.000664
2021-09-13 16:07:40,0.000562
2021-09-13 16:07:50,0.000476
2021-09-13 16:08:00,0.000403
2021-09-13 16:08:10,0.000341
2021-09-13 16:08:20,0.000289
2021-09-13 16:08:30,0.000244
2021-09-13 16:08:40,0.000207
2021-09-13 16:08:50,0.000175
2021-09-13 16:09:00,0.000148
2021-09-13 16:09:10,0.000125
2021-09-13 16:09:20,0.000106
2021-09-13 16:09:30,0.0000898
2021-09-13 16:09:40,0.0000761
2021-09-13 16:09:50,0.0000644
2021-09-13 16:10:00,0.0000545
2021-09-13 16:10:10,0.0000461
2021-09-13 16:10:20,0.0000390
2021-09-13 16:10:30,0.0000331
2021-09-13 16:10:40,0.0000280
2021-09-13 16:10:50,0.0000237
2021-09-13 16:11:00,0.0000200
2021-09-13 16:11:10,0.0000170
2021-09-13 16:11:20,0.0000144
2021-09-13 16:11:30,0.0000122
2021-09-13 16:11:40,0.0000103
2021-09-13 16:11:50,0.00000871
2021-09-13 16:12:00,0.00000738
2021-09-13 16:12:10,0.00000624
2021-09-13 16:12:20,0.00000528
2021-09-13 16:12:30,0.00000447
2021-09-13 16:12:40,0.00000379
2021-09-13 16:12:50,0.00000321
2021-09-13 16:13:00,0.00000271
2021-09-13 16:13:10,0.00000230
2021-09-13 16:13:20,0.00000194
2021-09-13 16:13:30,0.00000165
2021-09-13 16:13:40,0.00000139
2021-09-13 16:13:50,0.00000118
2021-09-13 16:14:00,9.98e-7
2021-09-13 16:14:10,8.45e-7
2021-09-13 16:14:20,7.15e-7
2021-09-13 16:14:30,6.05e-7
2021-09-13 16:14:40,5.12e-7
2021-09-13 16:14:50,4.34e-7
2021-09-13 16:15:00,3.67e-7
2021-09-13 16:15:10,3.11e-7
2021-09-13 16:15:20,2.63e-7
2021-09-13 16:15:30,2.23e-7
2021-09-13 16:15:40,1.89e-7
2021-09-13 16:15:50,1.6e-7
2021-09-13 16:16:00,1.35e-7
2021-09-13 16:16:10,1.14e-7
2021-09-13 16:16:20,9.68e-8
2021-09-13 16:16:30,8.19e-8
2021-09-13 16:16:40,6.94e-8
2021-09-13 16:16:50,5.87e-8
2021-09-13 16:17:00,4.97e-8
2021-09-13 16:17:10,4.21e-8
2021-09-13 16:17:20,3.56e-8
2021-09-13 16:17:30,3.01e-8
2021-09-13 16:17:40,2.55e-8
2021-09-13 16:17:50,2.16e-8
2021-09-13 16:18:00,1.83e-8
2021-09-13 16:18:10,1.55e-8
2021-09-13 16:18:20,1.31e-8
2021-09-13 16:18:30,1.11e-8
2021-09-13 16:18:40,9.39e-9
2021-09-13 16:18:50,7.95e-9
2021-09-13 16:19:00,6.73e-9
2021-09-13 16:19:10,5.69e-9
2021-09-13 16:19:20,4.82e-9
2021-09-13 16:19:30,4.08e-9
2021-09-13 16:19:40,3.45e-9
2021-09-13 16:19:50,2.92e-9
2021-09-13 16:20:00,2.47e-9
2021-09-13 16:20:10,2.09e-9
2021-09-13 16:20:20,1.77e-9
2021-09-13 16:20:30,1.5e-9
2021-09-13 16:20:40,1.27e-9
2021-09-13 16:20:50,1.08e-9
2021-09-13 16:21:00,9.1e-10
2021-09-13 16:21:10,7.7e-10
2021-09-13 16:21:20,6.52e-10
2021-09-13 16:21:30,5.52e-10
2021-09-13 16:21:40,4.67e-10
2021-09-13 16:21:50,3.96e-10
2021-09-13 16:22:00,3.35e-10
2021-09-13 16:22:10,2.83e-10
2021-09-13 16:22:20,2.4e-10
2021-09-13 16:22:30,2.03e-10
2021-09-13 16:22:40,1.72e-10
2021-09-13 16:22:50,1.46e-10
2021-09-13 16:23:00,1.23e-10
2021-09-13 16:23:10,1.04e-10
2021-09-13 16:23:20,8.83e-11
2021-09-13 16:23:30,7.47e-11
2021-09-13 16:23:40,6.32e-11
2021-09-13 16:23:50,5.35e-11
2021-09-13 16:24:00,4.53e-11
2021-09-13 16:24:10,3.84e-11
2021-09-13 16:24:20,3.25e-11
2021-09-13 16:24:30,2.75e-11
2021-09-13 16:24:40,2.33e-11
2021-09-13 16:24:50,1.97e-11
2021-09-13 16:25:00,1.67e-11
2021-09-13 16:25:10,1.41e-11
2021-09-13 16:25:20,1.19e-11
2021-09-13 16:25:30,1.01e-11
2021-09-13 16:25:40,8.56e-12
2021-09-13 16:25:50,7.24e-12
2021-09-13 16:26:00,6.13e-12
2021-09-13 16:26:10,5.19e-12
2021-09-13 16:26:20,4.39e-12
2021-09-13 16:26:30,3.72e-12
2021-09-13 16:26:40,3.15e-12
2021-09-13 16:26:50,2.67e-12
2021-09-13 16:27:00,2.26e-12
2021-09-13 16:27:10,1.91e-12
2021-09-13 16:27:20,1.62e-12
2021-09-13 16:27:30,1.37e-12
2021-09-13 16:27:40,1.16e-12
2021-09-13 16:27:50,9.8e-13
2021-09-13 16:28:00,8.3e-13
2021-09-13 16:28:10,7.03e-13
2021-09-13 16:28:20,5.95e-13
2021-09-13 16:28:30,5.03e-13
2021-09-13 16:28:40,4.26e-13
2021-09-13 16:28:50,3.61e-13
2021-09-13 16:29:00,3.05e-13
2021-09-13 16:29:10,2.58e-13
2021-09-13 16:29:20,2.19e-13
2021-09-13 16:29:30,1.85e-13
2021-09-13 16:29:40,1.57e-13
2021-09-13 16:29:50,1.33e-13
2021-09-13 16:30:00,1.12e-13
2021-09-13 16:30:10,9.51e-14
2021-09-13 16:30:20,8.05e-14
2021-09-13 16:30:30,6.81e-14
2021-09-13 16:30:40,5.77e-14
2021-09-13 16:30:50,4.88e-14
2021-09-13 16:31:00,4.13e-14
2021-09-13 16:31:10,3.5e-14
2021-09-13 16:31:20,2.96e-14
2021-09-13 16:31:30,2.51e-14
2021-09-13 16:31:40,2.12e-14
2021-09-13 16:31:50,1.8e-14
2021-09-13 16:32:00,1.52e-14
2021-09-13 16:32:10,1.29e-14
2021-09-13 16:32:20,1.09e-14
2021-09-13 16:32:30,9.22e-15
2021-09-13 16:32:40,7.8e-15
2021-09-13 16:32:50,6.61e-15
2021-09-13 16:33:00,5.59e-15
2021-09-13 16:33:10,4.73e-15
2021-09-13 16:33:20,4.01e-15
2021-09-13 16:33:30,3.39e-15
2021-09-13 16:33:40,2.87e-15
2021-09-13 16:33:50,2.43e-15
2021-09-13 16:34:00,2.06e-15
2021-09-13 16:34:10,1.74e-15
2021-09-13 16:34:20,1.47e-15
2021-09-13 16:34:30,1.25e-15
2021-09-13 16:34:40,1.06e-15
2021-09-13 16:34:50,8.94e-16
2021-09-13 16:35:00,7.57e-16
2021-09-13 16:35:10,6.41e-16
2021-09-13 16:35:20,5.42e-16
2021-09-13 16:35:30,4.59e-16
2021-09-13 16:35:40,3.89e-16
2021-09-13 16:35:50,3.29e-16
2021-09-13 16:36:00,2.78e-16
2021-09-13 16:36:10,2.36e-16
2021-09-13 16:36:20,1.99e-16
2021-09-13 16:36:30,1.69e-16
2021-09-13 16:36:40,1.43e-16
2021-09-13 16:36:50,1.21e-16
2021-09-13 16:37:00,1.02e-16
2021-09-13 16:37:10,8.67e-17
2021-09-13 16:37:20,7.34e-17
2021-09-13 16:37:30,6.21e-17
2021-09-13 16:37:40,5.26e-17
2021-09-13 16:37:50,4.45e-17
2021-09-13 16:38:00,3.77e-17
2021-09-13 16:38:10,3.19e-17
2021-09-13 16:38:20,2.7e-17
2021-09-13 16:38:30,2.29e-17
2021-09-13 16:38:40,1.93e-17
2021-09-13 16:38:50,1.64e-17
2021-09-13 16:39:00,1.39e-17
2021-09-13 16:39:10,1.17e-17
2021-09-13 16:39:20,9.93e-18
2021-09-13 16:39:30,8.41e-18
2021-09-13 16:39:40,7.12e-18
2021-09-13 16:39:50,6.02e-18
2021-09-13 16:40:00,5.1e-18
2021-09-13 16:40:10,4.32e-18
2021-09-13 16:40:20,3.65e-18
2021-09-13 16:40:30,3.09e-18
2021-09-13 16:40:40,2.62e-18
2021-09-13 16:40:50,2.22e-18
2021-09-13 16:41:00,1.88e-18
2021-09-13 16:41:10,1.59e-18
2021-09-13 16:41:20,1.34e-18
2021-09-13 16:41:30,1.14e-18
2021-09-13 16:41:40,9.63e-19
2021-09-13 16:41:50,8.15e-19
2021-09-13 16:42:00,6.9e-19
2021-09-13 16:42:10,5.84e-19
2021-09-13 16:42:20,4.95e-19
2021-09-13 16:42:30,4.19e-19
2021-09-13 16:42:40,3.54e-19
2021-09-13 16:42:50,3e-19
2021-09-13 16:43:00,2.54e-19
2021-09-13 16:43:10,2.15e-19
2021-09-13 16:43:20,1.82e-19
2021-09-13 16:43:30,1.54e-19
2021-09-13 16:43:40,1.3e-19
2021-09-13 16:43:50,1.1e-19
2021-09-13 16:44:00,9.34e-20
2021-09-13 16:44:10,7.91e-20
2021-09-13 16:44:20,6.69e-20
2021-09-13 16:44:30,5.67e-20
2021-09-13 16:44:40,4.8e-20
2021-09-13 16:44:50,4.06e-20
2021-09-13 16:45:00,

