﻿"Time","held"
2021-09-13 15:43:00,
2021-09-13 15:43:05,
2021-09-13 15:43:10,
2021-09-13 15:43:15,
2021-09-13 15:43:20,
2021-09-13 15:43:25,
2021-09-13 15:43:30,
2021-09-13 15:43:35,
2021-09-13 15:43:40,
2021-09-13 15:43:45,
2021-09-13 15:43:50,664354816
2021-09-13 15:43:55,
2021-09-13 15:44:00,726138880
2021-09-13 15:44:05,
2021-09-13 15:44:10,808329216
2021-09-13 15:44:15,
2021-09-13 15:44:20,837124096
2021-09-13 15:44:25,
2021-09-13 15:44:30,855318528
2021-09-13 15:44:35,
2021-09-13 15:44:40,879181824
2021-09-13 15:44:45,
2021-09-13 15:44:50,927662080
2021-09-13 15:44:55,
2021-09-13 15:45:00,928366592
2021-09-13 15:45:05,
2021-09-13 15:45:10,959504384
2021-09-13 15:45:15,
2021-09-13 15:45:20,954392576
2021-09-13 15:45:25,
2021-09-13 15:45:30,951312384
2021-09-13 15:45:35,
2021-09-13 15:45:40,948142080
2021-09-13 15:45:45,
2021-09-13 15:45:50,942940160
2021-09-13 15:45:55,
2021-09-13 15:46:00,939474944
2021-09-13 15:46:05,
2021-09-13 15:46:10,934567936
2021-09-13 15:46:15,
2021-09-13 15:46:20,929923072
2021-09-13 15:46:25,
2021-09-13 15:46:30,926957568
2021-09-13 15:46:35,
2021-09-13 15:46:40,924450816
2021-09-13 15:46:45,
2021-09-13 15:46:50,916209664
2021-09-13 15:46:55,
2021-09-13 15:47:00,911876096
2021-09-13 15:47:05,
2021-09-13 15:47:10,908075008
2021-09-13 15:47:15,
2021-09-13 15:47:20,900349952
2021-09-13 15:47:25,
2021-09-13 15:47:30,896491520
2021-09-13 15:47:35,
2021-09-13 15:47:40,892239872
2021-09-13 15:47:45,
2021-09-13 15:47:50,922558464
2021-09-13 15:47:55,
2021-09-13 15:48:00,918462464
2021-09-13 15:48:05,
2021-09-13 15:48:10,914685952
2021-09-13 15:48:15,
2021-09-13 15:48:20,909877248
2021-09-13 15:48:25,
2021-09-13 15:48:30,906280960
2021-09-13 15:48:35,
2021-09-13 15:48:40,903872512
2021-09-13 15:48:45,
2021-09-13 15:48:50,899153920
2021-09-13 15:48:55,
2021-09-13 15:49:00,892116992
2021-09-13 15:49:05,
2021-09-13 15:49:10,888922112
2021-09-13 15:49:15,
2021-09-13 15:49:20,884269056
2021-09-13 15:49:25,
2021-09-13 15:49:30,881385472
2021-09-13 15:49:35,
2021-09-13 15:49:40,877715456
2021-09-13 15:49:45,
2021-09-13 15:49:50,873865216
2021-09-13 15:49:55,
2021-09-13 15:50:00,870178816
2021-09-13 15:50:05,
2021-09-13 15:50:10,867598336
2021-09-13 15:50:15,
2021-09-13 15:50:20,864305152
2021-09-13 15:50:25,
2021-09-13 15:50:30,856883200
2021-09-13 15:50:35,
2021-09-13 15:50:40,848896000
2021-09-13 15:50:45,
2021-09-13 15:50:50,830480384
2021-09-13 15:50:55,
2021-09-13 15:51:00,806240256
2021-09-13 15:51:05,
2021-09-13 15:51:10,797982720
2021-09-13 15:51:15,
2021-09-13 15:51:20,797982720
2021-09-13 15:51:25,
2021-09-13 15:51:30,797982720
2021-09-13 15:51:35,
2021-09-13 15:51:40,797982720
2021-09-13 15:51:45,
2021-09-13 15:51:50,797982720
2021-09-13 15:51:55,
2021-09-13 15:52:00,797982720
2021-09-13 15:52:05,
2021-09-13 15:52:10,797982720
2021-09-13 15:52:15,
2021-09-13 15:52:20,797982720
2021-09-13 15:52:25,
2021-09-13 15:52:30,792092672
2021-09-13 15:52:35,
2021-09-13 15:52:40,772030464
2021-09-13 15:52:45,
2021-09-13 15:52:50,751165440
2021-09-13 15:52:55,
2021-09-13 15:53:00,723714048
2021-09-13 15:53:05,
2021-09-13 15:53:10,704348160
2021-09-13 15:53:15,
2021-09-13 15:53:20,683835392
2021-09-13 15:53:25,
2021-09-13 15:53:30,659628032
2021-09-13 15:53:35,
2021-09-13 15:53:40,638779392
2021-09-13 15:53:45,
2021-09-13 15:53:50,621223936
2021-09-13 15:53:55,
2021-09-13 15:54:00,596721664
2021-09-13 15:54:05,
2021-09-13 15:54:10,577298432
2021-09-13 15:54:15,
2021-09-13 15:54:20,558759936
2021-09-13 15:54:25,
2021-09-13 15:54:30,537583616
2021-09-13 15:54:35,
2021-09-13 15:54:40,516161536
2021-09-13 15:54:45,
2021-09-13 15:54:50,493510656
2021-09-13 15:54:55,
2021-09-13 15:55:00,466968576
2021-09-13 15:55:05,
2021-09-13 15:55:10,464887808
2021-09-13 15:55:15,
2021-09-13 15:55:20,464887808
2021-09-13 15:55:25,
2021-09-13 15:55:30,464887808
2021-09-13 15:55:35,
2021-09-13 15:55:40,464887808
2021-09-13 15:55:45,
2021-09-13 15:55:50,464887808
2021-09-13 15:55:55,
2021-09-13 15:56:00,464887808
2021-09-13 15:56:05,
2021-09-13 15:56:10,464887808
2021-09-13 15:56:15,
2021-09-13 15:56:20,464887808
2021-09-13 15:56:25,
2021-09-13 15:56:30,464101376
2021-09-13 15:56:35,
2021-09-13 15:56:40,464101376
2021-09-13 15:56:45,
2021-09-13 15:56:50,464101376
2021-09-13 15:56:55,
2021-09-13 15:57:00,464101376
2021-09-13 15:57:05,
2021-09-13 15:57:10,464101376
2021-09-13 15:57:15,
2021-09-13 15:57:20,464101376
2021-09-13 15:57:25,
2021-09-13 15:57:30,464101376
2021-09-13 15:57:35,
2021-09-13 15:57:40,464101376
2021-09-13 15:57:45,
2021-09-13 15:57:50,464101376
2021-09-13 15:57:55,
2021-09-13 15:58:00,464101376
2021-09-13 15:58:05,
2021-09-13 15:58:10,464101376
2021-09-13 15:58:15,
2021-09-13 15:58:20,464101376
2021-09-13 15:58:25,
2021-09-13 15:58:30,463732736
2021-09-13 15:58:35,
2021-09-13 15:58:40,463732736
2021-09-13 15:58:45,
2021-09-13 15:58:50,463732736
2021-09-13 15:58:55,
2021-09-13 15:59:00,463732736
2021-09-13 15:59:05,
2021-09-13 15:59:10,463732736
2021-09-13 15:59:15,
2021-09-13 15:59:20,463732736
2021-09-13 15:59:25,
2021-09-13 15:59:30,463732736
2021-09-13 15:59:35,
2021-09-13 15:59:40,463699968
2021-09-13 15:59:45,
2021-09-13 15:59:50,463699968
2021-09-13 15:59:55,
2021-09-13 16:00:00,463699968
2021-09-13 16:00:05,
2021-09-13 16:00:10,463699968
2021-09-13 16:00:15,
2021-09-13 16:00:20,463699968
2021-09-13 16:00:25,
2021-09-13 16:00:30,463732736
2021-09-13 16:00:35,
2021-09-13 16:00:40,463732736
2021-09-13 16:00:45,
2021-09-13 16:00:50,463634432
2021-09-13 16:00:55,
2021-09-13 16:01:00,463634432
2021-09-13 16:01:05,
2021-09-13 16:01:10,463634432
2021-09-13 16:01:15,
2021-09-13 16:01:20,463634432
2021-09-13 16:01:25,
2021-09-13 16:01:30,463634432
2021-09-13 16:01:35,
2021-09-13 16:01:40,463634432
2021-09-13 16:01:45,
2021-09-13 16:01:50,463634432
2021-09-13 16:01:55,
2021-09-13 16:02:00,463634432
2021-09-13 16:02:05,
2021-09-13 16:02:10,463634432
2021-09-13 16:02:15,
2021-09-13 16:02:20,463634432
2021-09-13 16:02:25,
2021-09-13 16:02:30,463699968
2021-09-13 16:02:35,
2021-09-13 16:02:40,463699968
2021-09-13 16:02:45,
2021-09-13 16:02:50,463699968
2021-09-13 16:02:55,
2021-09-13 16:03:00,463699968
2021-09-13 16:03:05,
2021-09-13 16:03:10,463699968
2021-09-13 16:03:15,
2021-09-13 16:03:20,463699968
2021-09-13 16:03:25,
2021-09-13 16:03:30,463699968
2021-09-13 16:03:35,
2021-09-13 16:03:40,463699968
2021-09-13 16:03:45,
2021-09-13 16:03:50,463699968
2021-09-13 16:03:55,
2021-09-13 16:04:00,463699968
2021-09-13 16:04:05,
2021-09-13 16:04:10,463699968
2021-09-13 16:04:15,
2021-09-13 16:04:20,463699968
2021-09-13 16:04:25,
2021-09-13 16:04:30,463732736
2021-09-13 16:04:35,
2021-09-13 16:04:40,463732736
2021-09-13 16:04:45,
2021-09-13 16:04:50,463732736
2021-09-13 16:04:55,
2021-09-13 16:05:00,463732736
2021-09-13 16:05:05,
2021-09-13 16:05:10,463634432
2021-09-13 16:05:15,
2021-09-13 16:05:20,463634432
2021-09-13 16:05:25,
2021-09-13 16:05:30,463634432
2021-09-13 16:05:35,
2021-09-13 16:05:40,463634432
2021-09-13 16:05:45,
2021-09-13 16:05:50,463634432
2021-09-13 16:05:55,
2021-09-13 16:06:00,463634432
2021-09-13 16:06:05,
2021-09-13 16:06:10,463634432
2021-09-13 16:06:15,
2021-09-13 16:06:20,463634432
2021-09-13 16:06:25,
2021-09-13 16:06:30,463699968
2021-09-13 16:06:35,
2021-09-13 16:06:40,463699968
2021-09-13 16:06:45,
2021-09-13 16:06:50,463699968
2021-09-13 16:06:55,
2021-09-13 16:07:00,463699968
2021-09-13 16:07:05,
2021-09-13 16:07:10,463699968
2021-09-13 16:07:15,
2021-09-13 16:07:20,463699968
2021-09-13 16:07:25,
2021-09-13 16:07:30,463699968
2021-09-13 16:07:35,
2021-09-13 16:07:40,463699968
2021-09-13 16:07:45,
2021-09-13 16:07:50,463699968
2021-09-13 16:07:55,
2021-09-13 16:08:00,463699968
2021-09-13 16:08:05,
2021-09-13 16:08:10,463699968
2021-09-13 16:08:15,
2021-09-13 16:08:20,463699968
2021-09-13 16:08:25,
2021-09-13 16:08:30,463732736
2021-09-13 16:08:35,
2021-09-13 16:08:40,463634432
2021-09-13 16:08:45,
2021-09-13 16:08:50,463634432
2021-09-13 16:08:55,
2021-09-13 16:09:00,463634432
2021-09-13 16:09:05,
2021-09-13 16:09:10,463634432
2021-09-13 16:09:15,
2021-09-13 16:09:20,463634432
2021-09-13 16:09:25,
2021-09-13 16:09:30,463634432
2021-09-13 16:09:35,
2021-09-13 16:09:40,463634432
2021-09-13 16:09:45,
2021-09-13 16:09:50,463634432
2021-09-13 16:09:55,
2021-09-13 16:10:00,463634432
2021-09-13 16:10:05,
2021-09-13 16:10:10,463634432
2021-09-13 16:10:15,
2021-09-13 16:10:20,463634432
2021-09-13 16:10:25,
2021-09-13 16:10:30,463699968
2021-09-13 16:10:35,
2021-09-13 16:10:40,463699968
2021-09-13 16:10:45,
2021-09-13 16:10:50,463699968
2021-09-13 16:10:55,
2021-09-13 16:11:00,463699968
2021-09-13 16:11:05,
2021-09-13 16:11:10,463699968
2021-09-13 16:11:15,
2021-09-13 16:11:20,463699968
2021-09-13 16:11:25,
2021-09-13 16:11:30,463699968
2021-09-13 16:11:35,
2021-09-13 16:11:40,463699968
2021-09-13 16:11:45,
2021-09-13 16:11:50,463699968
2021-09-13 16:11:55,
2021-09-13 16:12:00,463699968
2021-09-13 16:12:05,
2021-09-13 16:12:10,463699968
2021-09-13 16:12:15,
2021-09-13 16:12:20,463699968
2021-09-13 16:12:25,
2021-09-13 16:12:30,463732736
2021-09-13 16:12:35,
2021-09-13 16:12:40,463732736
2021-09-13 16:12:45,
2021-09-13 16:12:50,463634432
2021-09-13 16:12:55,
2021-09-13 16:13:00,463634432
2021-09-13 16:13:05,
2021-09-13 16:13:10,463634432
2021-09-13 16:13:15,
2021-09-13 16:13:20,463634432
2021-09-13 16:13:25,
2021-09-13 16:13:30,463634432
2021-09-13 16:13:35,
2021-09-13 16:13:40,463634432
2021-09-13 16:13:45,
2021-09-13 16:13:50,463634432
2021-09-13 16:13:55,
2021-09-13 16:14:00,463634432
2021-09-13 16:14:05,
2021-09-13 16:14:10,463634432
2021-09-13 16:14:15,
2021-09-13 16:14:20,463634432
2021-09-13 16:14:25,
2021-09-13 16:14:30,463699968
2021-09-13 16:14:35,
2021-09-13 16:14:40,463699968
2021-09-13 16:14:45,
2021-09-13 16:14:50,463699968
2021-09-13 16:14:55,
2021-09-13 16:15:00,463699968
2021-09-13 16:15:05,
2021-09-13 16:15:10,463699968
2021-09-13 16:15:15,
2021-09-13 16:15:20,463699968
2021-09-13 16:15:25,
2021-09-13 16:15:30,463699968
2021-09-13 16:15:35,
2021-09-13 16:15:40,463699968
2021-09-13 16:15:45,
2021-09-13 16:15:50,463699968
2021-09-13 16:15:55,
2021-09-13 16:16:00,463699968
2021-09-13 16:16:05,
2021-09-13 16:16:10,463699968
2021-09-13 16:16:15,
2021-09-13 16:16:20,463699968
2021-09-13 16:16:25,
2021-09-13 16:16:30,463732736
2021-09-13 16:16:35,
2021-09-13 16:16:40,463634432
2021-09-13 16:16:45,
2021-09-13 16:16:50,463634432
2021-09-13 16:16:55,
2021-09-13 16:17:00,463634432
2021-09-13 16:17:05,
2021-09-13 16:17:10,463634432
2021-09-13 16:17:15,
2021-09-13 16:17:20,463634432
2021-09-13 16:17:25,
2021-09-13 16:17:30,463634432
2021-09-13 16:17:35,
2021-09-13 16:17:40,463634432
2021-09-13 16:17:45,
2021-09-13 16:17:50,463634432
2021-09-13 16:17:55,
2021-09-13 16:18:00,463634432
2021-09-13 16:18:05,
2021-09-13 16:18:10,463634432
2021-09-13 16:18:15,
2021-09-13 16:18:20,463634432
2021-09-13 16:18:25,
2021-09-13 16:18:30,463699968
2021-09-13 16:18:35,
2021-09-13 16:18:40,463699968
2021-09-13 16:18:45,
2021-09-13 16:18:50,463699968
2021-09-13 16:18:55,
2021-09-13 16:19:00,463699968
2021-09-13 16:19:05,
2021-09-13 16:19:10,463699968
2021-09-13 16:19:15,
2021-09-13 16:19:20,463699968
2021-09-13 16:19:25,
2021-09-13 16:19:30,463699968
2021-09-13 16:19:35,
2021-09-13 16:19:40,463699968
2021-09-13 16:19:45,
2021-09-13 16:19:50,463699968
2021-09-13 16:19:55,
2021-09-13 16:20:00,463699968
2021-09-13 16:20:05,
2021-09-13 16:20:10,463699968
2021-09-13 16:20:15,
2021-09-13 16:20:20,463699968
2021-09-13 16:20:25,
2021-09-13 16:20:30,463732736
2021-09-13 16:20:35,
2021-09-13 16:20:40,463732736
2021-09-13 16:20:45,
2021-09-13 16:20:50,463634432
2021-09-13 16:20:55,
2021-09-13 16:21:00,463634432
2021-09-13 16:21:05,
2021-09-13 16:21:10,463634432
2021-09-13 16:21:15,
2021-09-13 16:21:20,463634432
2021-09-13 16:21:25,
2021-09-13 16:21:30,463634432
2021-09-13 16:21:35,
2021-09-13 16:21:40,463634432
2021-09-13 16:21:45,
2021-09-13 16:21:50,463634432
2021-09-13 16:21:55,
2021-09-13 16:22:00,463634432
2021-09-13 16:22:05,
2021-09-13 16:22:10,1000603648
2021-09-13 16:22:15,
2021-09-13 16:22:20,1000603648
2021-09-13 16:22:25,
2021-09-13 16:22:30,1000603648
2021-09-13 16:22:35,
2021-09-13 16:22:40,1000603648
2021-09-13 16:22:45,
2021-09-13 16:22:50,1000603648
2021-09-13 16:22:55,
2021-09-13 16:23:00,1000603648
2021-09-13 16:23:05,
2021-09-13 16:23:10,1000603648
2021-09-13 16:23:15,
2021-09-13 16:23:20,1000603648
2021-09-13 16:23:25,
2021-09-13 16:23:30,1000603648
2021-09-13 16:23:35,
2021-09-13 16:23:40,1000603648
2021-09-13 16:23:45,
2021-09-13 16:23:50,1000570880
2021-09-13 16:23:55,
2021-09-13 16:24:00,1000603648
2021-09-13 16:24:05,
2021-09-13 16:24:10,985931776
2021-09-13 16:24:15,
2021-09-13 16:24:20,962338816
2021-09-13 16:24:25,
2021-09-13 16:24:30,946298880
2021-09-13 16:24:35,
2021-09-13 16:24:40,928751616
2021-09-13 16:24:45,
2021-09-13 16:24:50,903241728
2021-09-13 16:24:55,
2021-09-13 16:25:00,885071872
2021-09-13 16:25:05,
2021-09-13 16:25:10,864509952
2021-09-13 16:25:15,
2021-09-13 16:25:20,837885952
2021-09-13 16:25:25,
2021-09-13 16:25:30,820674560
2021-09-13 16:25:35,
2021-09-13 16:25:40,802242560
2021-09-13 16:25:45,
2021-09-13 16:25:50,776994816
2021-09-13 16:25:55,
2021-09-13 16:26:00,759513088
2021-09-13 16:26:05,
2021-09-13 16:26:10,742506496
2021-09-13 16:26:15,
2021-09-13 16:26:20,719265792
2021-09-13 16:26:25,
2021-09-13 16:26:30,700907520
2021-09-13 16:26:35,
2021-09-13 16:26:40,682926080
2021-09-13 16:26:45,
2021-09-13 16:26:50,657096704
2021-09-13 16:26:55,
2021-09-13 16:27:00,638976000
2021-09-13 16:27:05,
2021-09-13 16:27:10,621207552
2021-09-13 16:27:15,
2021-09-13 16:27:20,597344256
2021-09-13 16:27:25,
2021-09-13 16:27:30,578387968
2021-09-13 16:27:35,
2021-09-13 16:27:40,560971776
2021-09-13 16:27:45,
2021-09-13 16:27:50,535674880
2021-09-13 16:27:55,
2021-09-13 16:28:00,519782400
2021-09-13 16:28:05,
2021-09-13 16:28:10,503767040
2021-09-13 16:28:15,
2021-09-13 16:28:20,472825856
2021-09-13 16:28:25,
2021-09-13 16:28:30,467943424
2021-09-13 16:28:35,
2021-09-13 16:28:40,467943424
2021-09-13 16:28:45,
2021-09-13 16:28:50,467943424
2021-09-13 16:28:55,
2021-09-13 16:29:00,467943424
2021-09-13 16:29:05,
2021-09-13 16:29:10,467943424
2021-09-13 16:29:15,
2021-09-13 16:29:20,467943424
2021-09-13 16:29:25,
2021-09-13 16:29:30,467943424
2021-09-13 16:29:35,
2021-09-13 16:29:40,467943424
2021-09-13 16:29:45,
2021-09-13 16:29:50,467943424
2021-09-13 16:29:55,
2021-09-13 16:30:00,467943424
2021-09-13 16:30:05,
2021-09-13 16:30:10,466755584
2021-09-13 16:30:15,
2021-09-13 16:30:20,466755584
2021-09-13 16:30:25,
2021-09-13 16:30:30,466755584
2021-09-13 16:30:35,
2021-09-13 16:30:40,466755584
2021-09-13 16:30:45,
2021-09-13 16:30:50,466788352
2021-09-13 16:30:55,
2021-09-13 16:31:00,466788352
2021-09-13 16:31:05,
2021-09-13 16:31:10,466788352
2021-09-13 16:31:15,
2021-09-13 16:31:20,466788352
2021-09-13 16:31:25,
2021-09-13 16:31:30,466788352
2021-09-13 16:31:35,
2021-09-13 16:31:40,466788352
2021-09-13 16:31:45,
2021-09-13 16:31:50,466788352
2021-09-13 16:31:55,
2021-09-13 16:32:00,466788352
2021-09-13 16:32:05,
2021-09-13 16:32:10,466722816
2021-09-13 16:32:15,
2021-09-13 16:32:20,466722816
2021-09-13 16:32:25,
2021-09-13 16:32:30,466722816
2021-09-13 16:32:35,
2021-09-13 16:32:40,466722816
2021-09-13 16:32:45,
2021-09-13 16:32:50,466722816
2021-09-13 16:32:55,
2021-09-13 16:33:00,466722816
2021-09-13 16:33:05,
2021-09-13 16:33:10,466722816
2021-09-13 16:33:15,
2021-09-13 16:33:20,466722816
2021-09-13 16:33:25,
2021-09-13 16:33:30,466722816
2021-09-13 16:33:35,
2021-09-13 16:33:40,466722816
2021-09-13 16:33:45,
2021-09-13 16:33:50,466722816
2021-09-13 16:33:55,
2021-09-13 16:34:00,466722816
2021-09-13 16:34:05,
2021-09-13 16:34:10,466075648
2021-09-13 16:34:15,
2021-09-13 16:34:20,466075648
2021-09-13 16:34:25,
2021-09-13 16:34:30,466075648
2021-09-13 16:34:35,
2021-09-13 16:34:40,466075648
2021-09-13 16:34:45,
2021-09-13 16:34:50,466108416
2021-09-13 16:34:55,
2021-09-13 16:35:00,466108416
2021-09-13 16:35:05,
2021-09-13 16:35:10,466108416
2021-09-13 16:35:15,
2021-09-13 16:35:20,466108416
2021-09-13 16:35:25,
2021-09-13 16:35:30,466108416
2021-09-13 16:35:35,
2021-09-13 16:35:40,466108416
2021-09-13 16:35:45,
2021-09-13 16:35:50,466108416
2021-09-13 16:35:55,
2021-09-13 16:36:00,466108416
2021-09-13 16:36:05,
2021-09-13 16:36:10,466141184
2021-09-13 16:36:15,
2021-09-13 16:36:20,466141184
2021-09-13 16:36:25,
2021-09-13 16:36:30,466141184
2021-09-13 16:36:35,
2021-09-13 16:36:40,466042880
2021-09-13 16:36:45,
2021-09-13 16:36:50,466042880
2021-09-13 16:36:55,
2021-09-13 16:37:00,466042880
2021-09-13 16:37:05,
2021-09-13 16:37:10,466042880
2021-09-13 16:37:15,
2021-09-13 16:37:20,466042880
2021-09-13 16:37:25,
2021-09-13 16:37:30,466042880
2021-09-13 16:37:35,
2021-09-13 16:37:40,466042880
2021-09-13 16:37:45,
2021-09-13 16:37:50,466042880
2021-09-13 16:37:55,
2021-09-13 16:38:00,466042880
2021-09-13 16:38:05,
2021-09-13 16:38:10,466108416
2021-09-13 16:38:15,
2021-09-13 16:38:20,466108416
2021-09-13 16:38:25,
2021-09-13 16:38:30,466108416
2021-09-13 16:38:35,
2021-09-13 16:38:40,466108416
2021-09-13 16:38:45,
2021-09-13 16:38:50,466108416
2021-09-13 16:38:55,
2021-09-13 16:39:00,466108416
2021-09-13 16:39:05,
2021-09-13 16:39:10,466108416
2021-09-13 16:39:15,
2021-09-13 16:39:20,466108416
2021-09-13 16:39:25,
2021-09-13 16:39:30,466108416
2021-09-13 16:39:35,
2021-09-13 16:39:40,466108416
2021-09-13 16:39:45,
2021-09-13 16:39:50,466108416
2021-09-13 16:39:55,
2021-09-13 16:40:00,466108416
2021-09-13 16:40:05,
2021-09-13 16:40:10,466042880
2021-09-13 16:40:15,
2021-09-13 16:40:20,466042880
2021-09-13 16:40:25,
2021-09-13 16:40:30,466042880
2021-09-13 16:40:35,
2021-09-13 16:40:40,466042880
2021-09-13 16:40:45,
2021-09-13 16:40:50,466042880
2021-09-13 16:40:55,
2021-09-13 16:41:00,466042880
2021-09-13 16:41:05,
2021-09-13 16:41:10,466042880
2021-09-13 16:41:15,
2021-09-13 16:41:20,466042880
2021-09-13 16:41:25,
2021-09-13 16:41:30,466042880
2021-09-13 16:41:35,
2021-09-13 16:41:40,466042880
2021-09-13 16:41:45,
2021-09-13 16:41:50,466042880
2021-09-13 16:41:55,
2021-09-13 16:42:00,466042880
2021-09-13 16:42:05,
2021-09-13 16:42:10,466108416
2021-09-13 16:42:15,
2021-09-13 16:42:20,466108416
2021-09-13 16:42:25,
2021-09-13 16:42:30,466108416
2021-09-13 16:42:35,
2021-09-13 16:42:40,466108416
2021-09-13 16:42:45,
2021-09-13 16:42:50,466141184
2021-09-13 16:42:55,
2021-09-13 16:43:00,466141184
2021-09-13 16:43:05,
2021-09-13 16:43:10,466141184
2021-09-13 16:43:15,
2021-09-13 16:43:20,466141184
2021-09-13 16:43:25,
2021-09-13 16:43:30,466141184
2021-09-13 16:43:35,
2021-09-13 16:43:40,466141184
2021-09-13 16:43:45,
2021-09-13 16:43:50,466108416
2021-09-13 16:43:55,
2021-09-13 16:44:00,466141184
2021-09-13 16:44:05,
2021-09-13 16:44:10,466173952
2021-09-13 16:44:15,
2021-09-13 16:44:20,466075648
2021-09-13 16:44:25,
2021-09-13 16:44:30,466075648
2021-09-13 16:44:35,
2021-09-13 16:44:40,466075648
2021-09-13 16:44:45,
2021-09-13 16:44:50,466075648
2021-09-13 16:44:55,
2021-09-13 16:45:00,

