﻿"Time","used"
2021-09-20 13:45:00,
2021-09-20 13:45:02,
2021-09-20 13:45:04,
2021-09-20 13:45:06,
2021-09-20 13:45:08,
2021-09-20 13:45:10,
2021-09-20 13:45:12,
2021-09-20 13:45:14,
2021-09-20 13:45:16,638156224
2021-09-20 13:45:18,
2021-09-20 13:45:20,
2021-09-20 13:45:22,
2021-09-20 13:45:24,
2021-09-20 13:45:26,641655368
2021-09-20 13:45:28,
2021-09-20 13:45:30,
2021-09-20 13:45:32,
2021-09-20 13:45:34,
2021-09-20 13:45:36,643929224
2021-09-20 13:45:38,
2021-09-20 13:45:40,
2021-09-20 13:45:42,
2021-09-20 13:45:44,
2021-09-20 13:45:46,647074944
2021-09-20 13:45:48,
2021-09-20 13:45:50,
2021-09-20 13:45:52,
2021-09-20 13:45:54,
2021-09-20 13:45:56,649318112
2021-09-20 13:45:58,
2021-09-20 13:46:00,
2021-09-20 13:46:02,
2021-09-20 13:46:04,
2021-09-20 13:46:06,651193736
2021-09-20 13:46:08,
2021-09-20 13:46:10,
2021-09-20 13:46:12,
2021-09-20 13:46:14,
2021-09-20 13:46:16,653795456
2021-09-20 13:46:18,
2021-09-20 13:46:20,
2021-09-20 13:46:22,
2021-09-20 13:46:24,
2021-09-20 13:46:26,655699928
2021-09-20 13:46:28,
2021-09-20 13:46:30,
2021-09-20 13:46:32,
2021-09-20 13:46:34,
2021-09-20 13:46:36,657601376
2021-09-20 13:46:38,
2021-09-20 13:46:40,
2021-09-20 13:46:42,
2021-09-20 13:46:44,
2021-09-20 13:46:46,660028144
2021-09-20 13:46:48,
2021-09-20 13:46:50,
2021-09-20 13:46:52,
2021-09-20 13:46:54,
2021-09-20 13:46:56,661826776
2021-09-20 13:46:58,
2021-09-20 13:47:00,
2021-09-20 13:47:02,
2021-09-20 13:47:04,
2021-09-20 13:47:06,663958120
2021-09-20 13:47:08,
2021-09-20 13:47:10,
2021-09-20 13:47:12,
2021-09-20 13:47:14,
2021-09-20 13:47:16,368058184
2021-09-20 13:47:18,
2021-09-20 13:47:20,
2021-09-20 13:47:22,
2021-09-20 13:47:24,
2021-09-20 13:47:26,369940096
2021-09-20 13:47:28,
2021-09-20 13:47:30,
2021-09-20 13:47:32,
2021-09-20 13:47:34,
2021-09-20 13:47:36,371532136
2021-09-20 13:47:38,
2021-09-20 13:47:40,
2021-09-20 13:47:42,
2021-09-20 13:47:44,
2021-09-20 13:47:46,373488216
2021-09-20 13:47:48,
2021-09-20 13:47:50,
2021-09-20 13:47:52,
2021-09-20 13:47:54,
2021-09-20 13:47:56,375738128
2021-09-20 13:47:58,
2021-09-20 13:48:00,
2021-09-20 13:48:02,
2021-09-20 13:48:04,
2021-09-20 13:48:06,378289360
2021-09-20 13:48:08,
2021-09-20 13:48:10,
2021-09-20 13:48:12,
2021-09-20 13:48:14,
2021-09-20 13:48:16,380873536
2021-09-20 13:48:18,
2021-09-20 13:48:20,
2021-09-20 13:48:22,
2021-09-20 13:48:24,
2021-09-20 13:48:26,382708136
2021-09-20 13:48:28,
2021-09-20 13:48:30,
2021-09-20 13:48:32,
2021-09-20 13:48:34,
2021-09-20 13:48:36,384839064
2021-09-20 13:48:38,
2021-09-20 13:48:40,
2021-09-20 13:48:42,
2021-09-20 13:48:44,
2021-09-20 13:48:46,387317664
2021-09-20 13:48:48,
2021-09-20 13:48:50,
2021-09-20 13:48:52,
2021-09-20 13:48:54,
2021-09-20 13:48:56,389475680
2021-09-20 13:48:58,
2021-09-20 13:49:00,
2021-09-20 13:49:02,
2021-09-20 13:49:04,
2021-09-20 13:49:06,391671664
2021-09-20 13:49:08,
2021-09-20 13:49:10,
2021-09-20 13:49:12,
2021-09-20 13:49:14,
2021-09-20 13:49:16,368287408
2021-09-20 13:49:18,
2021-09-20 13:49:20,
2021-09-20 13:49:22,
2021-09-20 13:49:24,
2021-09-20 13:49:26,370002832
2021-09-20 13:49:28,
2021-09-20 13:49:30,
2021-09-20 13:49:32,
2021-09-20 13:49:34,
2021-09-20 13:49:36,371770760
2021-09-20 13:49:38,
2021-09-20 13:49:40,
2021-09-20 13:49:42,
2021-09-20 13:49:44,
2021-09-20 13:49:46,374467592
2021-09-20 13:49:48,
2021-09-20 13:49:50,
2021-09-20 13:49:52,
2021-09-20 13:49:54,
2021-09-20 13:49:56,376744376
2021-09-20 13:49:58,
2021-09-20 13:50:00,
2021-09-20 13:50:02,
2021-09-20 13:50:04,
2021-09-20 13:50:06,379030056
2021-09-20 13:50:08,
2021-09-20 13:50:10,
2021-09-20 13:50:12,
2021-09-20 13:50:14,
2021-09-20 13:50:16,381596184
2021-09-20 13:50:18,
2021-09-20 13:50:20,
2021-09-20 13:50:22,
2021-09-20 13:50:24,
2021-09-20 13:50:26,383601464
2021-09-20 13:50:28,
2021-09-20 13:50:30,
2021-09-20 13:50:32,
2021-09-20 13:50:34,
2021-09-20 13:50:36,385757584
2021-09-20 13:50:38,
2021-09-20 13:50:40,
2021-09-20 13:50:42,
2021-09-20 13:50:44,
2021-09-20 13:50:46,388496872
2021-09-20 13:50:48,
2021-09-20 13:50:50,
2021-09-20 13:50:52,
2021-09-20 13:50:54,
2021-09-20 13:50:56,390486664
2021-09-20 13:50:58,
2021-09-20 13:51:00,
2021-09-20 13:51:02,
2021-09-20 13:51:04,
2021-09-20 13:51:06,392833512
2021-09-20 13:51:08,
2021-09-20 13:51:10,
2021-09-20 13:51:12,
2021-09-20 13:51:14,
2021-09-20 13:51:16,368413840
2021-09-20 13:51:18,
2021-09-20 13:51:20,
2021-09-20 13:51:22,
2021-09-20 13:51:24,
2021-09-20 13:51:26,370253512
2021-09-20 13:51:28,
2021-09-20 13:51:30,
2021-09-20 13:51:32,
2021-09-20 13:51:34,
2021-09-20 13:51:36,372491280
2021-09-20 13:51:38,
2021-09-20 13:51:40,
2021-09-20 13:51:42,
2021-09-20 13:51:44,
2021-09-20 13:51:46,375096824
2021-09-20 13:51:48,
2021-09-20 13:51:50,
2021-09-20 13:51:52,
2021-09-20 13:51:54,
2021-09-20 13:51:56,377407808
2021-09-20 13:51:58,
2021-09-20 13:52:00,
2021-09-20 13:52:02,
2021-09-20 13:52:04,
2021-09-20 13:52:06,379424584
2021-09-20 13:52:08,
2021-09-20 13:52:10,
2021-09-20 13:52:12,
2021-09-20 13:52:14,
2021-09-20 13:52:16,385420832
2021-09-20 13:52:18,
2021-09-20 13:52:20,
2021-09-20 13:52:22,
2021-09-20 13:52:24,
2021-09-20 13:52:26,390589400
2021-09-20 13:52:28,
2021-09-20 13:52:30,
2021-09-20 13:52:32,
2021-09-20 13:52:34,
2021-09-20 13:52:36,392516296
2021-09-20 13:52:38,
2021-09-20 13:52:40,
2021-09-20 13:52:42,
2021-09-20 13:52:44,
2021-09-20 13:52:46,395041240
2021-09-20 13:52:48,
2021-09-20 13:52:50,
2021-09-20 13:52:52,
2021-09-20 13:52:54,
2021-09-20 13:52:56,397498880
2021-09-20 13:52:58,
2021-09-20 13:53:00,
2021-09-20 13:53:02,
2021-09-20 13:53:04,
2021-09-20 13:53:06,399785704
2021-09-20 13:53:08,
2021-09-20 13:53:10,
2021-09-20 13:53:12,
2021-09-20 13:53:14,
2021-09-20 13:53:16,370130888
2021-09-20 13:53:18,
2021-09-20 13:53:20,
2021-09-20 13:53:22,
2021-09-20 13:53:24,
2021-09-20 13:53:26,372501624
2021-09-20 13:53:28,
2021-09-20 13:53:30,
2021-09-20 13:53:32,
2021-09-20 13:53:34,
2021-09-20 13:53:36,374545744
2021-09-20 13:53:38,
2021-09-20 13:53:40,
2021-09-20 13:53:42,
2021-09-20 13:53:44,
2021-09-20 13:53:46,377067136
2021-09-20 13:53:48,
2021-09-20 13:53:50,
2021-09-20 13:53:52,
2021-09-20 13:53:54,
2021-09-20 13:53:56,379603304
2021-09-20 13:53:58,
2021-09-20 13:54:00,
2021-09-20 13:54:02,
2021-09-20 13:54:04,
2021-09-20 13:54:06,381820968
2021-09-20 13:54:08,
2021-09-20 13:54:10,
2021-09-20 13:54:12,
2021-09-20 13:54:14,
2021-09-20 13:54:16,384745088
2021-09-20 13:54:18,
2021-09-20 13:54:20,
2021-09-20 13:54:22,
2021-09-20 13:54:24,
2021-09-20 13:54:26,387604448
2021-09-20 13:54:28,
2021-09-20 13:54:30,
2021-09-20 13:54:32,
2021-09-20 13:54:34,
2021-09-20 13:54:36,395304736
2021-09-20 13:54:38,
2021-09-20 13:54:40,
2021-09-20 13:54:42,
2021-09-20 13:54:44,
2021-09-20 13:54:46,397832056
2021-09-20 13:54:48,
2021-09-20 13:54:50,
2021-09-20 13:54:52,
2021-09-20 13:54:54,
2021-09-20 13:54:56,400394032
2021-09-20 13:54:58,
2021-09-20 13:55:00,
2021-09-20 13:55:02,
2021-09-20 13:55:04,
2021-09-20 13:55:06,402915704
2021-09-20 13:55:08,
2021-09-20 13:55:10,
2021-09-20 13:55:12,
2021-09-20 13:55:14,
2021-09-20 13:55:16,370715592
2021-09-20 13:55:18,
2021-09-20 13:55:20,
2021-09-20 13:55:22,
2021-09-20 13:55:24,
2021-09-20 13:55:26,372275000
2021-09-20 13:55:28,
2021-09-20 13:55:30,
2021-09-20 13:55:32,
2021-09-20 13:55:34,
2021-09-20 13:55:36,374625216
2021-09-20 13:55:38,
2021-09-20 13:55:40,
2021-09-20 13:55:42,
2021-09-20 13:55:44,
2021-09-20 13:55:46,377620312
2021-09-20 13:55:48,
2021-09-20 13:55:50,
2021-09-20 13:55:52,
2021-09-20 13:55:54,
2021-09-20 13:55:56,379832840
2021-09-20 13:55:58,
2021-09-20 13:56:00,
2021-09-20 13:56:02,
2021-09-20 13:56:04,
2021-09-20 13:56:06,382114000
2021-09-20 13:56:08,
2021-09-20 13:56:10,
2021-09-20 13:56:12,
2021-09-20 13:56:14,
2021-09-20 13:56:16,385133984
2021-09-20 13:56:18,
2021-09-20 13:56:20,
2021-09-20 13:56:22,
2021-09-20 13:56:24,
2021-09-20 13:56:26,387287144
2021-09-20 13:56:28,
2021-09-20 13:56:30,
2021-09-20 13:56:32,
2021-09-20 13:56:34,
2021-09-20 13:56:36,389528448
2021-09-20 13:56:38,
2021-09-20 13:56:40,
2021-09-20 13:56:42,
2021-09-20 13:56:44,
2021-09-20 13:56:46,392275760
2021-09-20 13:56:48,
2021-09-20 13:56:50,
2021-09-20 13:56:52,
2021-09-20 13:56:54,
2021-09-20 13:56:56,394402512
2021-09-20 13:56:58,
2021-09-20 13:57:00,
2021-09-20 13:57:02,
2021-09-20 13:57:04,
2021-09-20 13:57:06,396238168
2021-09-20 13:57:08,
2021-09-20 13:57:10,
2021-09-20 13:57:12,
2021-09-20 13:57:14,
2021-09-20 13:57:16,371080616
2021-09-20 13:57:18,
2021-09-20 13:57:20,
2021-09-20 13:57:22,
2021-09-20 13:57:24,
2021-09-20 13:57:26,373610544
2021-09-20 13:57:28,
2021-09-20 13:57:30,
2021-09-20 13:57:32,
2021-09-20 13:57:34,
2021-09-20 13:57:36,375964176
2021-09-20 13:57:38,
2021-09-20 13:57:40,
2021-09-20 13:57:42,
2021-09-20 13:57:44,
2021-09-20 13:57:46,378571672
2021-09-20 13:57:48,
2021-09-20 13:57:50,
2021-09-20 13:57:52,
2021-09-20 13:57:54,
2021-09-20 13:57:56,380958936
2021-09-20 13:57:58,
2021-09-20 13:58:00,
2021-09-20 13:58:02,
2021-09-20 13:58:04,
2021-09-20 13:58:06,383201752
2021-09-20 13:58:08,
2021-09-20 13:58:10,
2021-09-20 13:58:12,
2021-09-20 13:58:14,
2021-09-20 13:58:16,385673728
2021-09-20 13:58:18,
2021-09-20 13:58:20,
2021-09-20 13:58:22,
2021-09-20 13:58:24,
2021-09-20 13:58:26,387913072
2021-09-20 13:58:28,
2021-09-20 13:58:30,
2021-09-20 13:58:32,
2021-09-20 13:58:34,
2021-09-20 13:58:36,390412792
2021-09-20 13:58:38,
2021-09-20 13:58:40,
2021-09-20 13:58:42,
2021-09-20 13:58:44,
2021-09-20 13:58:46,393549328
2021-09-20 13:58:48,
2021-09-20 13:58:50,
2021-09-20 13:58:52,
2021-09-20 13:58:54,
2021-09-20 13:58:56,396127032
2021-09-20 13:58:58,
2021-09-20 13:59:00,
2021-09-20 13:59:02,
2021-09-20 13:59:04,
2021-09-20 13:59:06,398215384
2021-09-20 13:59:08,
2021-09-20 13:59:10,
2021-09-20 13:59:12,
2021-09-20 13:59:14,
2021-09-20 13:59:16,371067584
2021-09-20 13:59:18,
2021-09-20 13:59:20,
2021-09-20 13:59:22,
2021-09-20 13:59:24,
2021-09-20 13:59:26,373400400
2021-09-20 13:59:28,
2021-09-20 13:59:30,
2021-09-20 13:59:32,
2021-09-20 13:59:34,
2021-09-20 13:59:36,376090392
2021-09-20 13:59:38,
2021-09-20 13:59:40,
2021-09-20 13:59:42,
2021-09-20 13:59:44,
2021-09-20 13:59:46,378953192
2021-09-20 13:59:48,
2021-09-20 13:59:50,
2021-09-20 13:59:52,
2021-09-20 13:59:54,
2021-09-20 13:59:56,380880176
2021-09-20 13:59:58,
2021-09-20 14:00:00,
2021-09-20 14:00:02,
2021-09-20 14:00:04,
2021-09-20 14:00:06,383589832
2021-09-20 14:00:08,
2021-09-20 14:00:10,
2021-09-20 14:00:12,
2021-09-20 14:00:14,
2021-09-20 14:00:16,386391016
2021-09-20 14:00:18,
2021-09-20 14:00:20,
2021-09-20 14:00:22,
2021-09-20 14:00:24,
2021-09-20 14:00:26,388724176
2021-09-20 14:00:28,
2021-09-20 14:00:30,
2021-09-20 14:00:32,
2021-09-20 14:00:34,
2021-09-20 14:00:36,391003608
2021-09-20 14:00:38,
2021-09-20 14:00:40,
2021-09-20 14:00:42,
2021-09-20 14:00:44,
2021-09-20 14:00:46,393883000
2021-09-20 14:00:48,
2021-09-20 14:00:50,
2021-09-20 14:00:52,
2021-09-20 14:00:54,
2021-09-20 14:00:56,395819016
2021-09-20 14:00:58,
2021-09-20 14:01:00,
2021-09-20 14:01:02,
2021-09-20 14:01:04,
2021-09-20 14:01:06,398512816
2021-09-20 14:01:08,
2021-09-20 14:01:10,
2021-09-20 14:01:12,
2021-09-20 14:01:14,
2021-09-20 14:01:16,370936296
2021-09-20 14:01:18,
2021-09-20 14:01:20,
2021-09-20 14:01:22,
2021-09-20 14:01:24,
2021-09-20 14:01:26,373209336
2021-09-20 14:01:28,
2021-09-20 14:01:30,
2021-09-20 14:01:32,
2021-09-20 14:01:34,
2021-09-20 14:01:36,375563160
2021-09-20 14:01:38,
2021-09-20 14:01:40,
2021-09-20 14:01:42,
2021-09-20 14:01:44,
2021-09-20 14:01:46,378076496
2021-09-20 14:01:48,
2021-09-20 14:01:50,
2021-09-20 14:01:52,
2021-09-20 14:01:54,
2021-09-20 14:01:56,380074000
2021-09-20 14:01:58,
2021-09-20 14:02:00,
2021-09-20 14:02:02,
2021-09-20 14:02:04,
2021-09-20 14:02:06,382367464
2021-09-20 14:02:08,
2021-09-20 14:02:10,
2021-09-20 14:02:12,
2021-09-20 14:02:14,
2021-09-20 14:02:16,385431848
2021-09-20 14:02:18,
2021-09-20 14:02:20,
2021-09-20 14:02:22,
2021-09-20 14:02:24,
2021-09-20 14:02:26,387822792
2021-09-20 14:02:28,
2021-09-20 14:02:30,
2021-09-20 14:02:32,
2021-09-20 14:02:34,
2021-09-20 14:02:36,390557552
2021-09-20 14:02:38,
2021-09-20 14:02:40,
2021-09-20 14:02:42,
2021-09-20 14:02:44,
2021-09-20 14:02:46,393346984
2021-09-20 14:02:48,
2021-09-20 14:02:50,
2021-09-20 14:02:52,
2021-09-20 14:02:54,
2021-09-20 14:02:56,395711608
2021-09-20 14:02:58,
2021-09-20 14:03:00,
2021-09-20 14:03:02,
2021-09-20 14:03:04,
2021-09-20 14:03:06,397896216
2021-09-20 14:03:08,
2021-09-20 14:03:10,
2021-09-20 14:03:12,
2021-09-20 14:03:14,
2021-09-20 14:03:16,371035520
2021-09-20 14:03:18,
2021-09-20 14:03:20,
2021-09-20 14:03:22,
2021-09-20 14:03:24,
2021-09-20 14:03:26,373416296
2021-09-20 14:03:28,
2021-09-20 14:03:30,
2021-09-20 14:03:32,
2021-09-20 14:03:34,
2021-09-20 14:03:36,375896888
2021-09-20 14:03:38,
2021-09-20 14:03:40,
2021-09-20 14:03:42,
2021-09-20 14:03:44,
2021-09-20 14:03:46,378071512
2021-09-20 14:03:48,
2021-09-20 14:03:50,
2021-09-20 14:03:52,
2021-09-20 14:03:54,
2021-09-20 14:03:56,380325264
2021-09-20 14:03:58,
2021-09-20 14:04:00,
2021-09-20 14:04:02,
2021-09-20 14:04:04,
2021-09-20 14:04:06,383054504
2021-09-20 14:04:08,
2021-09-20 14:04:10,
2021-09-20 14:04:12,
2021-09-20 14:04:14,
2021-09-20 14:04:16,386003496
2021-09-20 14:04:18,
2021-09-20 14:04:20,
2021-09-20 14:04:22,
2021-09-20 14:04:24,
2021-09-20 14:04:26,388214232
2021-09-20 14:04:28,
2021-09-20 14:04:30,
2021-09-20 14:04:32,
2021-09-20 14:04:34,
2021-09-20 14:04:36,390558576
2021-09-20 14:04:38,
2021-09-20 14:04:40,
2021-09-20 14:04:42,
2021-09-20 14:04:44,
2021-09-20 14:04:46,393619000
2021-09-20 14:04:48,
2021-09-20 14:04:50,
2021-09-20 14:04:52,
2021-09-20 14:04:54,
2021-09-20 14:04:56,396214632
2021-09-20 14:04:58,
2021-09-20 14:05:00,
2021-09-20 14:05:02,
2021-09-20 14:05:04,
2021-09-20 14:05:06,399093912
2021-09-20 14:05:08,
2021-09-20 14:05:10,
2021-09-20 14:05:12,
2021-09-20 14:05:14,
2021-09-20 14:05:16,370369784
2021-09-20 14:05:18,
2021-09-20 14:05:20,
2021-09-20 14:05:22,
2021-09-20 14:05:24,
2021-09-20 14:05:26,373051248
2021-09-20 14:05:28,
2021-09-20 14:05:30,
2021-09-20 14:05:32,
2021-09-20 14:05:34,
2021-09-20 14:05:36,375325840
2021-09-20 14:05:38,
2021-09-20 14:05:40,
2021-09-20 14:05:42,
2021-09-20 14:05:44,
2021-09-20 14:05:46,377361416
2021-09-20 14:05:48,
2021-09-20 14:05:50,
2021-09-20 14:05:52,
2021-09-20 14:05:54,
2021-09-20 14:05:56,380257600
2021-09-20 14:05:58,
2021-09-20 14:06:00,
2021-09-20 14:06:02,
2021-09-20 14:06:04,
2021-09-20 14:06:06,382563416
2021-09-20 14:06:08,
2021-09-20 14:06:10,
2021-09-20 14:06:12,
2021-09-20 14:06:14,
2021-09-20 14:06:16,385417536
2021-09-20 14:06:18,
2021-09-20 14:06:20,
2021-09-20 14:06:22,
2021-09-20 14:06:24,
2021-09-20 14:06:26,388137328
2021-09-20 14:06:28,
2021-09-20 14:06:30,
2021-09-20 14:06:32,
2021-09-20 14:06:34,
2021-09-20 14:06:36,390152168
2021-09-20 14:06:38,
2021-09-20 14:06:40,
2021-09-20 14:06:42,
2021-09-20 14:06:44,
2021-09-20 14:06:46,392885384
2021-09-20 14:06:48,
2021-09-20 14:06:50,
2021-09-20 14:06:52,
2021-09-20 14:06:54,
2021-09-20 14:06:56,395669600
2021-09-20 14:06:58,
2021-09-20 14:07:00,
2021-09-20 14:07:02,
2021-09-20 14:07:04,
2021-09-20 14:07:06,397891864
2021-09-20 14:07:08,
2021-09-20 14:07:10,
2021-09-20 14:07:12,
2021-09-20 14:07:14,
2021-09-20 14:07:16,370927120
2021-09-20 14:07:18,
2021-09-20 14:07:20,
2021-09-20 14:07:22,
2021-09-20 14:07:24,
2021-09-20 14:07:26,373962712
2021-09-20 14:07:28,
2021-09-20 14:07:30,
2021-09-20 14:07:32,
2021-09-20 14:07:34,
2021-09-20 14:07:36,375988976
2021-09-20 14:07:38,
2021-09-20 14:07:40,
2021-09-20 14:07:42,
2021-09-20 14:07:44,
2021-09-20 14:07:46,377885144
2021-09-20 14:07:48,
2021-09-20 14:07:50,
2021-09-20 14:07:52,
2021-09-20 14:07:54,
2021-09-20 14:07:56,380386680
2021-09-20 14:07:58,
2021-09-20 14:08:00,
2021-09-20 14:08:02,
2021-09-20 14:08:04,
2021-09-20 14:08:06,383688912
2021-09-20 14:08:08,
2021-09-20 14:08:10,
2021-09-20 14:08:12,
2021-09-20 14:08:14,
2021-09-20 14:08:16,391445144
2021-09-20 14:08:18,
2021-09-20 14:08:20,
2021-09-20 14:08:22,
2021-09-20 14:08:24,
2021-09-20 14:08:26,394285856
2021-09-20 14:08:28,
2021-09-20 14:08:30,
2021-09-20 14:08:32,
2021-09-20 14:08:34,
2021-09-20 14:08:36,396662808
2021-09-20 14:08:38,
2021-09-20 14:08:40,
2021-09-20 14:08:42,
2021-09-20 14:08:44,
2021-09-20 14:08:46,398798176
2021-09-20 14:08:48,
2021-09-20 14:08:50,
2021-09-20 14:08:52,
2021-09-20 14:08:54,
2021-09-20 14:08:56,401712792
2021-09-20 14:08:58,
2021-09-20 14:09:00,
2021-09-20 14:09:02,
2021-09-20 14:09:04,
2021-09-20 14:09:06,403738224
2021-09-20 14:09:08,
2021-09-20 14:09:10,
2021-09-20 14:09:12,
2021-09-20 14:09:14,
2021-09-20 14:09:16,372077576
2021-09-20 14:09:18,
2021-09-20 14:09:20,
2021-09-20 14:09:22,
2021-09-20 14:09:24,
2021-09-20 14:09:26,375070040
2021-09-20 14:09:28,
2021-09-20 14:09:30,
2021-09-20 14:09:32,
2021-09-20 14:09:34,
2021-09-20 14:09:36,377473272
2021-09-20 14:09:38,
2021-09-20 14:09:40,
2021-09-20 14:09:42,
2021-09-20 14:09:44,
2021-09-20 14:09:46,380336688
2021-09-20 14:09:48,
2021-09-20 14:09:50,
2021-09-20 14:09:52,
2021-09-20 14:09:54,
2021-09-20 14:09:56,382980136
2021-09-20 14:09:58,
2021-09-20 14:10:00,
2021-09-20 14:10:02,
2021-09-20 14:10:04,
2021-09-20 14:10:06,385099680
2021-09-20 14:10:08,
2021-09-20 14:10:10,
2021-09-20 14:10:12,
2021-09-20 14:10:14,
2021-09-20 14:10:16,387513320
2021-09-20 14:10:18,
2021-09-20 14:10:20,
2021-09-20 14:10:22,
2021-09-20 14:10:24,
2021-09-20 14:10:26,389906808
2021-09-20 14:10:28,
2021-09-20 14:10:30,
2021-09-20 14:10:32,
2021-09-20 14:10:34,
2021-09-20 14:10:36,391888752
2021-09-20 14:10:38,
2021-09-20 14:10:40,
2021-09-20 14:10:42,
2021-09-20 14:10:44,
2021-09-20 14:10:46,394378008
2021-09-20 14:10:48,
2021-09-20 14:10:50,
2021-09-20 14:10:52,
2021-09-20 14:10:54,
2021-09-20 14:10:56,397239504
2021-09-20 14:10:58,
2021-09-20 14:11:00,
2021-09-20 14:11:02,
2021-09-20 14:11:04,
2021-09-20 14:11:06,399403984
2021-09-20 14:11:08,
2021-09-20 14:11:10,
2021-09-20 14:11:12,
2021-09-20 14:11:14,
2021-09-20 14:11:16,371839752
2021-09-20 14:11:18,
2021-09-20 14:11:20,
2021-09-20 14:11:22,
2021-09-20 14:11:24,
2021-09-20 14:11:26,376637880
2021-09-20 14:11:28,
2021-09-20 14:11:30,
2021-09-20 14:11:32,
2021-09-20 14:11:34,
2021-09-20 14:11:36,379246688
2021-09-20 14:11:38,
2021-09-20 14:11:40,
2021-09-20 14:11:42,
2021-09-20 14:11:44,
2021-09-20 14:11:46,381385984
2021-09-20 14:11:48,
2021-09-20 14:11:50,
2021-09-20 14:11:52,
2021-09-20 14:11:54,
2021-09-20 14:11:56,384322232
2021-09-20 14:11:58,
2021-09-20 14:12:00,
2021-09-20 14:12:02,
2021-09-20 14:12:04,
2021-09-20 14:12:06,386807944
2021-09-20 14:12:08,
2021-09-20 14:12:10,
2021-09-20 14:12:12,
2021-09-20 14:12:14,
2021-09-20 14:12:16,389193440
2021-09-20 14:12:18,
2021-09-20 14:12:20,
2021-09-20 14:12:22,
2021-09-20 14:12:24,
2021-09-20 14:12:26,392852336
2021-09-20 14:12:28,
2021-09-20 14:12:30,
2021-09-20 14:12:32,
2021-09-20 14:12:34,
2021-09-20 14:12:36,395355216
2021-09-20 14:12:38,
2021-09-20 14:12:40,
2021-09-20 14:12:42,
2021-09-20 14:12:44,
2021-09-20 14:12:46,397758384
2021-09-20 14:12:48,
2021-09-20 14:12:50,
2021-09-20 14:12:52,
2021-09-20 14:12:54,
2021-09-20 14:12:56,400417608
2021-09-20 14:12:58,
2021-09-20 14:13:00,
2021-09-20 14:13:02,
2021-09-20 14:13:04,
2021-09-20 14:13:06,402746632
2021-09-20 14:13:08,
2021-09-20 14:13:10,
2021-09-20 14:13:12,
2021-09-20 14:13:14,
2021-09-20 14:13:16,373033496
2021-09-20 14:13:18,
2021-09-20 14:13:20,
2021-09-20 14:13:22,
2021-09-20 14:13:24,
2021-09-20 14:13:26,376105560
2021-09-20 14:13:28,
2021-09-20 14:13:30,
2021-09-20 14:13:32,
2021-09-20 14:13:34,
2021-09-20 14:13:36,378708608
2021-09-20 14:13:38,
2021-09-20 14:13:40,
2021-09-20 14:13:42,
2021-09-20 14:13:44,
2021-09-20 14:13:46,381274592
2021-09-20 14:13:48,
2021-09-20 14:13:50,
2021-09-20 14:13:52,
2021-09-20 14:13:54,
2021-09-20 14:13:56,384092984
2021-09-20 14:13:58,
2021-09-20 14:14:00,
2021-09-20 14:14:02,
2021-09-20 14:14:04,
2021-09-20 14:14:06,386668256
2021-09-20 14:14:08,
2021-09-20 14:14:10,
2021-09-20 14:14:12,
2021-09-20 14:14:14,
2021-09-20 14:14:16,389739264
2021-09-20 14:14:18,
2021-09-20 14:14:20,
2021-09-20 14:14:22,
2021-09-20 14:14:24,
2021-09-20 14:14:26,392640144
2021-09-20 14:14:28,
2021-09-20 14:14:30,
2021-09-20 14:14:32,
2021-09-20 14:14:34,
2021-09-20 14:14:36,395066352
2021-09-20 14:14:38,
2021-09-20 14:14:40,
2021-09-20 14:14:42,
2021-09-20 14:14:44,
2021-09-20 14:14:46,397439176
2021-09-20 14:14:48,
2021-09-20 14:14:50,
2021-09-20 14:14:52,
2021-09-20 14:14:54,
2021-09-20 14:14:56,399866344
2021-09-20 14:14:58,
2021-09-20 14:15:00,

